%YAML 1.1
%TAG !u! tag:unity3d.com,2011:
--- !u!114 &11400000
MonoBehaviour:
  m_ObjectHideFlags: 0
  m_CorrespondingSourceObject: {fileID: 0}
  m_PrefabInternal: {fileID: 0}
  m_GameObject: {fileID: 0}
  m_Enabled: 1
  m_EditorHideFlags: 0
  m_Script: {fileID: 11500000, guid: 42dff178cdcfb1740a46c868a9902c1e, type: 3}
  m_Name: Fade
  m_EditorClassIdentifier: 
  AnimationNames:
  - Fade100
  - Fade100Reset
  - Fade50
  - Fade50Reset
  - Fade50Slow
  - Fade50SlowReset
  - Fade80
  - Fade80Reset
  - SlightFade
  - SlightFadeReset
  Database:
  - {fileID: 114408530411369924}
  - {fileID: 114672166744387198}
  - {fileID: 114173362121286870}
  - {fileID: 114668248072307084}
  - {fileID: 114827696213240814}
  - {fileID: 114896679812675314}
  - {fileID: 114389888218852386}
  - {fileID: 114855226488193966}
  - {fileID: 114293955609486860}
  - {fileID: 114674330668881980}
  DatabaseName: Fade
  DataType: 5
--- !u!114 &114173362121286870
MonoBehaviour:
  m_ObjectHideFlags: 0
  m_CorrespondingSourceObject: {fileID: 0}
  m_PrefabInternal: {fileID: 0}
  m_GameObject: {fileID: 0}
  m_Enabled: 1
  m_EditorHideFlags: 0
  m_Script: {fileID: 11500000, guid: fe5b16c60b843134eb75c4ba6a7b6f52, type: 3}
  m_Name: Fade50
  m_EditorClassIdentifier: 
  Animation:
    AnimationType: 5
    Move:
      AnimationType: 5
      Enabled: 0
      From: {x: 0, y: 0, z: 0}
      To: {x: 0, y: 0, z: 0}
      By: {x: 0, y: 15, z: 0}
      UseCustomFromAndTo: 0
      Vibrato: 10
      Elasticity: 1
      NumberOfLoops: -1
      LoopType: 1
      Direction: 0
      CustomPosition: {x: 0, y: 0, z: 0}
      EaseType: 0
      Ease: 29
      AnimationCurve:
        serializedVersion: 2
        m_Curve: []
        m_PreInfinity: 2
        m_PostInfinity: 2
        m_RotationOrder: 4
      StartDelay: 0
      Duration: 0.2
    Rotate:
      AnimationType: 5
      Enabled: 0
      From: {x: 0, y: 0, z: 0}
      To: {x: 0, y: 0, z: 0}
      By: {x: 0, y: 90, z: 0}
      UseCustomFromAndTo: 0
      Vibrato: 10
      Elasticity: 1
      NumberOfLoops: -1
      LoopType: 1
      RotateMode: 0
      EaseType: 0
      Ease: 27
      AnimationCurve:
        serializedVersion: 2
        m_Curve: []
        m_PreInfinity: 2
        m_PostInfinity: 2
        m_RotationOrder: 4
      StartDelay: 0.1
      Duration: 0.2
    Scale:
      AnimationType: 5
      Enabled: 0
      From: {x: 0, y: 0, z: 0}
      To: {x: 0, y: 0, z: 0}
      By: {x: 0, y: -0.5, z: 0}
      UseCustomFromAndTo: 0
      Vibrato: 10
      Elasticity: 1
      NumberOfLoops: -1
      LoopType: 1
      EaseType: 0
      Ease: 30
      AnimationCurve:
        serializedVersion: 2
        m_Curve: []
        m_PreInfinity: 2
        m_PostInfinity: 2
        m_RotationOrder: 4
      StartDelay: 0
      Duration: 0.2
    Fade:
      AnimationType: 5
      Enabled: 1
      From: 0
      To: 1
      By: -0.5
      UseCustomFromAndTo: 0
      NumberOfLoops: -1
      LoopType: 1
      EaseType: 0
      Ease: 1
      AnimationCurve:
        serializedVersion: 2
        m_Curve: []
        m_PreInfinity: 2
        m_PostInfinity: 2
        m_RotationOrder: 4
      StartDelay: 0
      Duration: 0.1
  Category: Fade
  Name: Fade50
--- !u!114 &114293955609486860
MonoBehaviour:
  m_ObjectHideFlags: 0
  m_CorrespondingSourceObject: {fileID: 0}
  m_PrefabInternal: {fileID: 0}
  m_GameObject: {fileID: 0}
  m_Enabled: 1
  m_EditorHideFlags: 0
  m_Script: {fileID: 11500000, guid: fe5b16c60b843134eb75c4ba6a7b6f52, type: 3}
  m_Name: SlightFade
  m_EditorClassIdentifier: 
  Animation:
    AnimationType: 5
    Move:
      AnimationType: 5
      Enabled: 0
      From: {x: 0, y: 0, z: 0}
      To: {x: 0, y: 0, z: 0}
      By: {x: 0, y: 15, z: 0}
      UseCustomFromAndTo: 0
      Vibrato: 10
      Elasticity: 1
      NumberOfLoops: -1
      LoopType: 1
      Direction: 0
      CustomPosition: {x: 0, y: 0, z: 0}
      EaseType: 0
      Ease: 29
      AnimationCurve:
        serializedVersion: 2
        m_Curve: []
        m_PreInfinity: 2
        m_PostInfinity: 2
        m_RotationOrder: 4
      StartDelay: 0
      Duration: 0.2
    Rotate:
      AnimationType: 5
      Enabled: 0
      From: {x: 0, y: 0, z: 0}
      To: {x: 0, y: 0, z: 0}
      By: {x: 0, y: 90, z: 0}
      UseCustomFromAndTo: 0
      Vibrato: 10
      Elasticity: 1
      NumberOfLoops: -1
      LoopType: 1
      RotateMode: 0
      EaseType: 0
      Ease: 27
      AnimationCurve:
        serializedVersion: 2
        m_Curve: []
        m_PreInfinity: 2
        m_PostInfinity: 2
        m_RotationOrder: 4
      StartDelay: 0.1
      Duration: 0.2
    Scale:
      AnimationType: 5
      Enabled: 0
      From: {x: 0, y: 0, z: 0}
      To: {x: 0, y: 0, z: 0}
      By: {x: 0, y: -0.5, z: 0}
      UseCustomFromAndTo: 0
      Vibrato: 10
      Elasticity: 1
      NumberOfLoops: -1
      LoopType: 1
      EaseType: 0
      Ease: 30
      AnimationCurve:
        serializedVersion: 2
        m_Curve: []
        m_PreInfinity: 2
        m_PostInfinity: 2
        m_RotationOrder: 4
      StartDelay: 0
      Duration: 0.2
    Fade:
      AnimationType: 5
      Enabled: 1
      From: 0
      To: 1
      By: -0.2
      UseCustomFromAndTo: 0
      NumberOfLoops: -1
      LoopType: 1
      EaseType: 0
      Ease: 1
      AnimationCurve:
        serializedVersion: 2
        m_Curve: []
        m_PreInfinity: 2
        m_PostInfinity: 2
        m_RotationOrder: 4
      StartDelay: 0
      Duration: 0.1
  Category: Fade
  Name: SlightFade
--- !u!114 &114389888218852386
MonoBehaviour:
  m_ObjectHideFlags: 0
  m_CorrespondingSourceObject: {fileID: 0}
  m_PrefabInternal: {fileID: 0}
  m_GameObject: {fileID: 0}
  m_Enabled: 1
  m_EditorHideFlags: 0
  m_Script: {fileID: 11500000, guid: fe5b16c60b843134eb75c4ba6a7b6f52, type: 3}
  m_Name: Fade80
  m_EditorClassIdentifier: 
  Animation:
    AnimationType: 5
    Move:
      AnimationType: 5
      Enabled: 0
      From: {x: 0, y: 0, z: 0}
      To: {x: 0, y: 0, z: 0}
      By: {x: 0, y: 15, z: 0}
      UseCustomFromAndTo: 0
      Vibrato: 10
      Elasticity: 1
      NumberOfLoops: -1
      LoopType: 1
      Direction: 0
      CustomPosition: {x: 0, y: 0, z: 0}
      EaseType: 0
      Ease: 29
      AnimationCurve:
        serializedVersion: 2
        m_Curve: []
        m_PreInfinity: 2
        m_PostInfinity: 2
        m_RotationOrder: 4
      StartDelay: 0
      Duration: 0.2
    Rotate:
      AnimationType: 5
      Enabled: 0
      From: {x: 0, y: 0, z: 0}
      To: {x: 0, y: 0, z: 0}
      By: {x: 0, y: 90, z: 0}
      UseCustomFromAndTo: 0
      Vibrato: 10
      Elasticity: 1
      NumberOfLoops: -1
      LoopType: 1
      RotateMode: 0
      EaseType: 0
      Ease: 27
      AnimationCurve:
        serializedVersion: 2
        m_Curve: []
        m_PreInfinity: 2
        m_PostInfinity: 2
        m_RotationOrder: 4
      StartDelay: 0.1
      Duration: 0.2
    Scale:
      AnimationType: 5
      Enabled: 0
      From: {x: 0, y: 0, z: 0}
      To: {x: 0, y: 0, z: 0}
      By: {x: 0, y: -0.5, z: 0}
      UseCustomFromAndTo: 0
      Vibrato: 10
      Elasticity: 1
      NumberOfLoops: -1
      LoopType: 1
      EaseType: 0
      Ease: 30
      AnimationCurve:
        serializedVersion: 2
        m_Curve: []
        m_PreInfinity: 2
        m_PostInfinity: 2
        m_RotationOrder: 4
      StartDelay: 0
      Duration: 0.2
    Fade:
      AnimationType: 5
      Enabled: 1
      From: 0
      To: 1
      By: -0.8
      UseCustomFromAndTo: 0
      NumberOfLoops: -1
      LoopType: 1
      EaseType: 0
      Ease: 1
      AnimationCurve:
        serializedVersion: 2
        m_Curve: []
        m_PreInfinity: 2
        m_PostInfinity: 2
        m_RotationOrder: 4
      StartDelay: 0
      Duration: 0.1
  Category: Fade
  Name: Fade80
--- !u!114 &114408530411369924
MonoBehaviour:
  m_ObjectHideFlags: 0
  m_CorrespondingSourceObject: {fileID: 0}
  m_PrefabInternal: {fileID: 0}
  m_GameObject: {fileID: 0}
  m_Enabled: 1
  m_EditorHideFlags: 0
  m_Script: {fileID: 11500000, guid: fe5b16c60b843134eb75c4ba6a7b6f52, type: 3}
  m_Name: Fade100
  m_EditorClassIdentifier: 
  Animation:
    AnimationType: 5
    Move:
      AnimationType: 5
      Enabled: 0
      From: {x: 0, y: 0, z: 0}
      To: {x: 0, y: 0, z: 0}
      By: {x: 0, y: 15, z: 0}
      UseCustomFromAndTo: 0
      Vibrato: 10
      Elasticity: 1
      NumberOfLoops: -1
      LoopType: 1
      Direction: 0
      CustomPosition: {x: 0, y: 0, z: 0}
      EaseType: 0
      Ease: 29
      AnimationCurve:
        serializedVersion: 2
        m_Curve: []
        m_PreInfinity: 2
        m_PostInfinity: 2
        m_RotationOrder: 4
      StartDelay: 0
      Duration: 0.2
    Rotate:
      AnimationType: 5
      Enabled: 0
      From: {x: 0, y: 0, z: 0}
      To: {x: 0, y: 0, z: 0}
      By: {x: 0, y: 90, z: 0}
      UseCustomFromAndTo: 0
      Vibrato: 10
      Elasticity: 1
      NumberOfLoops: -1
      LoopType: 1
      RotateMode: 0
      EaseType: 0
      Ease: 27
      AnimationCurve:
        serializedVersion: 2
        m_Curve: []
        m_PreInfinity: 2
        m_PostInfinity: 2
        m_RotationOrder: 4
      StartDelay: 0.1
      Duration: 0.2
    Scale:
      AnimationType: 5
      Enabled: 0
      From: {x: 0, y: 0, z: 0}
      To: {x: 0, y: 0, z: 0}
      By: {x: 0, y: -0.5, z: 0}
      UseCustomFromAndTo: 0
      Vibrato: 10
      Elasticity: 1
      NumberOfLoops: -1
      LoopType: 1
      EaseType: 0
      Ease: 30
      AnimationCurve:
        serializedVersion: 2
        m_Curve: []
        m_PreInfinity: 2
        m_PostInfinity: 2
        m_RotationOrder: 4
      StartDelay: 0
      Duration: 0.2
    Fade:
      AnimationType: 5
      Enabled: 1
      From: 0
      To: 1
      By: -1
      UseCustomFromAndTo: 0
      NumberOfLoops: -1
      LoopType: 1
      EaseType: 0
      Ease: 1
      AnimationCurve:
        serializedVersion: 2
        m_Curve: []
        m_PreInfinity: 2
        m_PostInfinity: 2
        m_RotationOrder: 4
      StartDelay: 0
      Duration: 0.1
  Category: Fade
  Name: Fade100
--- !u!114 &114668248072307084
MonoBehaviour:
  m_ObjectHideFlags: 0
  m_CorrespondingSourceObject: {fileID: 0}
  m_PrefabInternal: {fileID: 0}
  m_GameObject: {fileID: 0}
  m_Enabled: 1
  m_EditorHideFlags: 0
  m_Script: {fileID: 11500000, guid: fe5b16c60b843134eb75c4ba6a7b6f52, type: 3}
  m_Name: Fade50Reset
  m_EditorClassIdentifier: 
  Animation:
    AnimationType: 5
    Move:
      AnimationType: 5
      Enabled: 0
      From: {x: 0, y: 0, z: 0}
      To: {x: 0, y: 0, z: 0}
      By: {x: 0, y: 0, z: 0}
      UseCustomFromAndTo: 0
      Vibrato: 10
      Elasticity: 1
      NumberOfLoops: -1
      LoopType: 1
      Direction: 0
      CustomPosition: {x: 0, y: 0, z: 0}
      EaseType: 0
      Ease: 23
      AnimationCurve:
        serializedVersion: 2
        m_Curve: []
        m_PreInfinity: 2
        m_PostInfinity: 2
        m_RotationOrder: 4
      StartDelay: 0
      Duration: 0.2
    Rotate:
      AnimationType: 5
      Enabled: 0
      From: {x: 0, y: 0, z: 0}
      To: {x: 0, y: 0, z: 0}
      By: {x: 0, y: 0, z: 0}
      UseCustomFromAndTo: 0
      Vibrato: 10
      Elasticity: 1
      NumberOfLoops: -1
      LoopType: 1
      RotateMode: 0
      EaseType: 0
      Ease: 26
      AnimationCurve:
        serializedVersion: 2
        m_Curve: []
        m_PreInfinity: 2
        m_PostInfinity: 2
        m_RotationOrder: 4
      StartDelay: 0
      Duration: 0.2
    Scale:
      AnimationType: 5
      Enabled: 0
      From: {x: 0, y: 0, z: 0}
      To: {x: 0, y: 0, z: 0}
      By: {x: 0, y: 0, z: 0}
      UseCustomFromAndTo: 0
      Vibrato: 10
      Elasticity: 1
      NumberOfLoops: -1
      LoopType: 1
      EaseType: 0
      Ease: 29
      AnimationCurve:
        serializedVersion: 2
        m_Curve: []
        m_PreInfinity: 2
        m_PostInfinity: 2
        m_RotationOrder: 4
      StartDelay: 0
      Duration: 0.2
    Fade:
      AnimationType: 5
      Enabled: 1
      From: 0
      To: 1
      By: 0
      UseCustomFromAndTo: 0
      NumberOfLoops: -1
      LoopType: 1
      EaseType: 0
      Ease: 1
      AnimationCurve:
        serializedVersion: 2
        m_Curve: []
        m_PreInfinity: 2
        m_PostInfinity: 2
        m_RotationOrder: 4
      StartDelay: 0
      Duration: 0.2
  Category: Fade
  Name: Fade50Reset
--- !u!114 &114672166744387198
MonoBehaviour:
  m_ObjectHideFlags: 0
  m_CorrespondingSourceObject: {fileID: 0}
  m_PrefabInternal: {fileID: 0}
  m_GameObject: {fileID: 0}
  m_Enabled: 1
  m_EditorHideFlags: 0
  m_Script: {fileID: 11500000, guid: fe5b16c60b843134eb75c4ba6a7b6f52, type: 3}
  m_Name: Fade100Reset
  m_EditorClassIdentifier: 
  Animation:
    AnimationType: 5
    Move:
      AnimationType: 5
      Enabled: 0
      From: {x: 0, y: 0, z: 0}
      To: {x: 0, y: 0, z: 0}
      By: {x: 0, y: 0, z: 0}
      UseCustomFromAndTo: 0
      Vibrato: 10
      Elasticity: 1
      NumberOfLoops: -1
      LoopType: 1
      Direction: 0
      CustomPosition: {x: 0, y: 0, z: 0}
      EaseType: 0
      Ease: 23
      AnimationCurve:
        serializedVersion: 2
        m_Curve: []
        m_PreInfinity: 2
        m_PostInfinity: 2
        m_RotationOrder: 4
      StartDelay: 0
      Duration: 0.2
    Rotate:
      AnimationType: 5
      Enabled: 0
      From: {x: 0, y: 0, z: 0}
      To: {x: 0, y: 0, z: 0}
      By: {x: 0, y: 0, z: 0}
      UseCustomFromAndTo: 0
      Vibrato: 10
      Elasticity: 1
      NumberOfLoops: -1
      LoopType: 1
      RotateMode: 0
      EaseType: 0
      Ease: 26
      AnimationCurve:
        serializedVersion: 2
        m_Curve: []
        m_PreInfinity: 2
        m_PostInfinity: 2
        m_RotationOrder: 4
      StartDelay: 0
      Duration: 0.2
    Scale:
      AnimationType: 5
      Enabled: 0
      From: {x: 0, y: 0, z: 0}
      To: {x: 0, y: 0, z: 0}
      By: {x: 0, y: 0, z: 0}
      UseCustomFromAndTo: 0
      Vibrato: 10
      Elasticity: 1
      NumberOfLoops: -1
      LoopType: 1
      EaseType: 0
      Ease: 29
      AnimationCurve:
        serializedVersion: 2
        m_Curve: []
        m_PreInfinity: 2
        m_PostInfinity: 2
        m_RotationOrder: 4
      StartDelay: 0
      Duration: 0.2
    Fade:
      AnimationType: 5
      Enabled: 1
      From: 0
      To: 1
      By: 0
      UseCustomFromAndTo: 0
      NumberOfLoops: -1
      LoopType: 1
      EaseType: 0
      Ease: 1
      AnimationCurve:
        serializedVersion: 2
        m_Curve: []
        m_PreInfinity: 2
        m_PostInfinity: 2
        m_RotationOrder: 4
      StartDelay: 0
      Duration: 0.2
  Category: Fade
  Name: Fade100Reset
--- !u!114 &114674330668881980
MonoBehaviour:
  m_ObjectHideFlags: 0
  m_CorrespondingSourceObject: {fileID: 0}
  m_PrefabInternal: {fileID: 0}
  m_GameObject: {fileID: 0}
  m_Enabled: 1
  m_EditorHideFlags: 0
  m_Script: {fileID: 11500000, guid: fe5b16c60b843134eb75c4ba6a7b6f52, type: 3}
  m_Name: SlightFadeReset
  m_EditorClassIdentifier: 
  Animation:
    AnimationType: 5
    Move:
      AnimationType: 5
      Enabled: 0
      From: {x: 0, y: 0, z: 0}
      To: {x: 0, y: 0, z: 0}
      By: {x: 0, y: 0, z: 0}
      UseCustomFromAndTo: 0
      Vibrato: 10
      Elasticity: 1
      NumberOfLoops: -1
      LoopType: 1
      Direction: 0
      CustomPosition: {x: 0, y: 0, z: 0}
      EaseType: 0
      Ease: 23
      AnimationCurve:
        serializedVersion: 2
        m_Curve: []
        m_PreInfinity: 2
        m_PostInfinity: 2
        m_RotationOrder: 4
      StartDelay: 0
      Duration: 0.2
    Rotate:
      AnimationType: 5
      Enabled: 0
      From: {x: 0, y: 0, z: 0}
      To: {x: 0, y: 0, z: 0}
      By: {x: 0, y: 0, z: 0}
      UseCustomFromAndTo: 0
      Vibrato: 10
      Elasticity: 1
      NumberOfLoops: -1
      LoopType: 1
      RotateMode: 0
      EaseType: 0
      Ease: 26
      AnimationCurve:
        serializedVersion: 2
        m_Curve: []
        m_PreInfinity: 2
        m_PostInfinity: 2
        m_RotationOrder: 4
      StartDelay: 0
      Duration: 0.2
    Scale:
      AnimationType: 5
      Enabled: 0
      From: {x: 0, y: 0, z: 0}
      To: {x: 0, y: 0, z: 0}
      By: {x: 0, y: 0, z: 0}
      UseCustomFromAndTo: 0
      Vibrato: 10
      Elasticity: 1
      NumberOfLoops: -1
      LoopType: 1
      EaseType: 0
      Ease: 29
      AnimationCurve:
        serializedVersion: 2
        m_Curve: []
        m_PreInfinity: 2
        m_PostInfinity: 2
        m_RotationOrder: 4
      StartDelay: 0
      Duration: 0.2
    Fade:
      AnimationType: 5
      Enabled: 1
      From: 0
      To: 1
      By: 0
      UseCustomFromAndTo: 0
      NumberOfLoops: -1
      LoopType: 1
      EaseType: 0
      Ease: 1
      AnimationCurve:
        serializedVersion: 2
        m_Curve: []
        m_PreInfinity: 2
        m_PostInfinity: 2
        m_RotationOrder: 4
      StartDelay: 0
      Duration: 0.1
  Category: Fade
  Name: SlightFadeReset
--- !u!114 &114827696213240814
MonoBehaviour:
  m_ObjectHideFlags: 0
  m_CorrespondingSourceObject: {fileID: 0}
  m_PrefabInternal: {fileID: 0}
  m_GameObject: {fileID: 0}
  m_Enabled: 1
  m_EditorHideFlags: 0
  m_Script: {fileID: 11500000, guid: fe5b16c60b843134eb75c4ba6a7b6f52, type: 3}
  m_Name: Fade50Slow
  m_EditorClassIdentifier: 
  Animation:
    AnimationType: 5
    Move:
      AnimationType: 5
      Enabled: 0
      From: {x: 0, y: 0, z: 0}
      To: {x: 0, y: 0, z: 0}
      By: {x: 0, y: 15, z: 0}
      UseCustomFromAndTo: 0
      Vibrato: 10
      Elasticity: 1
      NumberOfLoops: -1
      LoopType: 1
      Direction: 0
      CustomPosition: {x: 0, y: 0, z: 0}
      EaseType: 0
      Ease: 29
      AnimationCurve:
        serializedVersion: 2
        m_Curve: []
        m_PreInfinity: 2
        m_PostInfinity: 2
        m_RotationOrder: 4
      StartDelay: 0
      Duration: 0.2
    Rotate:
      AnimationType: 5
      Enabled: 0
      From: {x: 0, y: 0, z: 0}
      To: {x: 0, y: 0, z: 0}
      By: {x: 0, y: 90, z: 0}
      UseCustomFromAndTo: 0
      Vibrato: 10
      Elasticity: 1
      NumberOfLoops: -1
      LoopType: 1
      RotateMode: 0
      EaseType: 0
      Ease: 27
      AnimationCurve:
        serializedVersion: 2
        m_Curve: []
        m_PreInfinity: 2
        m_PostInfinity: 2
        m_RotationOrder: 4
      StartDelay: 0.1
      Duration: 0.2
    Scale:
      AnimationType: 5
      Enabled: 0
      From: {x: 0, y: 0, z: 0}
      To: {x: 0, y: 0, z: 0}
      By: {x: 0, y: -0.5, z: 0}
      UseCustomFromAndTo: 0
      Vibrato: 10
      Elasticity: 1
      NumberOfLoops: -1
      LoopType: 1
      EaseType: 0
      Ease: 30
      AnimationCurve:
        serializedVersion: 2
        m_Curve: []
        m_PreInfinity: 2
        m_PostInfinity: 2
        m_RotationOrder: 4
      StartDelay: 0
      Duration: 0.2
    Fade:
      AnimationType: 5
      Enabled: 1
      From: 0
      To: 1
      By: -0.5
      UseCustomFromAndTo: 0
      NumberOfLoops: -1
      LoopType: 1
      EaseType: 0
      Ease: 1
      AnimationCurve:
        serializedVersion: 2
        m_Curve: []
        m_PreInfinity: 2
        m_PostInfinity: 2
        m_RotationOrder: 4
      StartDelay: 0
      Duration: 0.5
  Category: Fade
  Name: Fade50Slow
--- !u!114 &114855226488193966
MonoBehaviour:
  m_ObjectHideFlags: 0
  m_CorrespondingSourceObject: {fileID: 0}
  m_PrefabInternal: {fileID: 0}
  m_GameObject: {fileID: 0}
  m_Enabled: 1
  m_EditorHideFlags: 0
  m_Script: {fileID: 11500000, guid: fe5b16c60b843134eb75c4ba6a7b6f52, type: 3}
  m_Name: Fade80Reset
  m_EditorClassIdentifier: 
  Animation:
    AnimationType: 5
    Move:
      AnimationType: 5
      Enabled: 0
      From: {x: 0, y: 0, z: 0}
      To: {x: 0, y: 0, z: 0}
      By: {x: 0, y: 0, z: 0}
      UseCustomFromAndTo: 0
      Vibrato: 10
      Elasticity: 1
      NumberOfLoops: -1
      LoopType: 1
      Direction: 0
      CustomPosition: {x: 0, y: 0, z: 0}
      EaseType: 0
      Ease: 23
      AnimationCurve:
        serializedVersion: 2
        m_Curve: []
        m_PreInfinity: 2
        m_PostInfinity: 2
        m_RotationOrder: 4
      StartDelay: 0
      Duration: 0.2
    Rotate:
      AnimationType: 5
      Enabled: 0
      From: {x: 0, y: 0, z: 0}
      To: {x: 0, y: 0, z: 0}
      By: {x: 0, y: 0, z: 0}
      UseCustomFromAndTo: 0
      Vibrato: 10
      Elasticity: 1
      NumberOfLoops: -1
      LoopType: 1
      RotateMode: 0
      EaseType: 0
      Ease: 26
      AnimationCurve:
        serializedVersion: 2
        m_Curve: []
        m_PreInfinity: 2
        m_PostInfinity: 2
        m_RotationOrder: 4
      StartDelay: 0
      Duration: 0.2
    Scale:
      AnimationType: 5
      Enabled: 0
      From: {x: 0, y: 0, z: 0}
      To: {x: 0, y: 0, z: 0}
      By: {x: 0, y: 0, z: 0}
      UseCustomFromAndTo: 0
      Vibrato: 10
      Elasticity: 1
      NumberOfLoops: -1
      LoopType: 1
      EaseType: 0
      Ease: 29
      AnimationCurve:
        serializedVersion: 2
        m_Curve: []
        m_PreInfinity: 2
        m_PostInfinity: 2
        m_RotationOrder: 4
      StartDelay: 0
      Duration: 0.2
    Fade:
      AnimationType: 5
      Enabled: 1
      From: 0
      To: 1
      By: 0
      UseCustomFromAndTo: 0
      NumberOfLoops: -1
      LoopType: 1
      EaseType: 0
      Ease: 1
      AnimationCurve:
        serializedVersion: 2
        m_Curve: []
        m_PreInfinity: 2
        m_PostInfinity: 2
        m_RotationOrder: 4
      StartDelay: 0
      Duration: 0.2
  Category: Fade
  Name: Fade80Reset
--- !u!114 &114896679812675314
MonoBehaviour:
  m_ObjectHideFlags: 0
  m_CorrespondingSourceObject: {fileID: 0}
  m_PrefabInternal: {fileID: 0}
  m_GameObject: {fileID: 0}
  m_Enabled: 1
  m_EditorHideFlags: 0
  m_Script: {fileID: 11500000, guid: fe5b16c60b843134eb75c4ba6a7b6f52, type: 3}
  m_Name: Fade50SlowReset
  m_EditorClassIdentifier: 
  Animation:
    AnimationType: 5
    Move:
      AnimationType: 5
      Enabled: 0
      From: {x: 0, y: 0, z: 0}
      To: {x: 0, y: 0, z: 0}
      By: {x: 0, y: 0, z: 0}
      UseCustomFromAndTo: 0
      Vibrato: 10
      Elasticity: 1
      NumberOfLoops: -1
      LoopType: 1
      Direction: 0
      CustomPosition: {x: 0, y: 0, z: 0}
      EaseType: 0
      Ease: 23
      AnimationCurve:
        serializedVersion: 2
        m_Curve: []
        m_PreInfinity: 2
        m_PostInfinity: 2
        m_RotationOrder: 4
      StartDelay: 0
      Duration: 0.2
    Rotate:
      AnimationType: 5
      Enabled: 0
      From: {x: 0, y: 0, z: 0}
      To: {x: 0, y: 0, z: 0}
      By: {x: 0, y: 0, z: 0}
      UseCustomFromAndTo: 0
      Vibrato: 10
      Elasticity: 1
      NumberOfLoops: -1
      LoopType: 1
      RotateMode: 0
      EaseType: 0
      Ease: 26
      AnimationCurve:
        serializedVersion: 2
        m_Curve: []
        m_PreInfinity: 2
        m_PostInfinity: 2
        m_RotationOrder: 4
      StartDelay: 0
      Duration: 0.2
    Scale:
      AnimationType: 5
      Enabled: 0
      From: {x: 0, y: 0, z: 0}
      To: {x: 0, y: 0, z: 0}
      By: {x: 0, y: 0, z: 0}
      UseCustomFromAndTo: 0
      Vibrato: 10
      Elasticity: 1
      NumberOfLoops: -1
      LoopType: 1
      EaseType: 0
      Ease: 29
      AnimationCurve:
        serializedVersion: 2
        m_Curve: []
        m_PreInfinity: 2
        m_PostInfinity: 2
        m_RotationOrder: 4
      StartDelay: 0
      Duration: 0.2
    Fade:
      AnimationType: 5
      Enabled: 1
      From: 0
      To: 1
      By: 0
      UseCustomFromAndTo: 0
      NumberOfLoops: -1
      LoopType: 1
      EaseType: 0
      Ease: 1
      AnimationCurve:
        serializedVersion: 2
        m_Curve: []
        m_PreInfinity: 2
        m_PostInfinity: 2
        m_RotationOrder: 4
      StartDelay: 0
      Duration: 0.5
  Category: Fade
  Name: Fade50SlowReset
