%YAML 1.1
%TAG !u! tag:unity3d.com,2011:
--- !u!114 &11400000
MonoBehaviour:
  m_ObjectHideFlags: 0
  m_CorrespondingSourceObject: {fileID: 0}
  m_PrefabInternal: {fileID: 0}
  m_GameObject: {fileID: 0}
  m_Enabled: 1
  m_EditorHideFlags: 0
  m_Script: {fileID: 11500000, guid: 42dff178cdcfb1740a46c868a9902c1e, type: 3}
  m_Name: Elastic
  m_EditorClassIdentifier: 
  AnimationNames:
  - BlinkFast
  - BlinkNormal
  - BlinkSlow
  - DeepScaleFast
  - DeepScaleNormal
  - DeepScaleSlow
  - ElasticHorizontalFast
  - ElasticHorizontalNormal
  - ElasticHorizontalSlow
  - ElasticVerticalFast
  - ElasticVerticalNormal
  - ElasticVerticalSlow
  - PressedVerticalFast
  - PressedVerticalNormal
  - PressedVerticalSlow
  - Rotate10
  - Rotate5
  - ScaleFast
  - ScaleNormal
  - ScaleSlow
  - SlideHorizontal
  - SlideVertical
  - StretchAndShrinkHorizontalFast
  - StretchAndShrinkHorizontalNormal
  - StretchAndShrinkHorizontalSlow
  - StretchAndShrinkVerticalFast
  - StretchAndShrinkVerticalNormal
  - StretchAndShrinkVerticalSlow
  Database:
  - {fileID: 114221049657123874}
  - {fileID: 114391285872156764}
  - {fileID: 114180484545894236}
  - {fileID: 114713666591418988}
  - {fileID: 114088785426899378}
  - {fileID: 114670334799195428}
  - {fileID: 114260230821282486}
  - {fileID: 114858875325330386}
  - {fileID: 114373054979367882}
  - {fileID: 114664269719908496}
  - {fileID: 114502032318806784}
  - {fileID: 114692936293715548}
  - {fileID: 114694420567950452}
  - {fileID: 114353295046973174}
  - {fileID: 114550082595601806}
  - {fileID: 114915178019232044}
  - {fileID: 114196230412556540}
  - {fileID: 114968104651517086}
  - {fileID: 114165993142748590}
  - {fileID: 114832502454664018}
  - {fileID: 114556173569437828}
  - {fileID: 114373127723196372}
  - {fileID: 114694692175778120}
  - {fileID: 114694054115441218}
  - {fileID: 114174419445507394}
  - {fileID: 114195585840373938}
  - {fileID: 114245334927798486}
  - {fileID: 114047193476968222}
  DatabaseName: Elastic
  DataType: 3
--- !u!114 &114047193476968222
MonoBehaviour:
  m_ObjectHideFlags: 0
  m_CorrespondingSourceObject: {fileID: 0}
  m_PrefabInternal: {fileID: 0}
  m_GameObject: {fileID: 0}
  m_Enabled: 1
  m_EditorHideFlags: 0
  m_Script: {fileID: 11500000, guid: fe5b16c60b843134eb75c4ba6a7b6f52, type: 3}
  m_Name: StretchAndShrinkVerticalSlow
  m_EditorClassIdentifier: 
  Animation:
    AnimationType: 3
    Move:
      AnimationType: 3
      Enabled: 0
      From: {x: 0, y: 0, z: 0}
      To: {x: 0, y: 0, z: 0}
      By: {x: 0, y: 20, z: 0}
      UseCustomFromAndTo: 0
      Vibrato: 10
      Elasticity: 1
      NumberOfLoops: -1
      LoopType: 1
      Direction: 0
      CustomPosition: {x: 0, y: 0, z: 0}
      EaseType: 0
      Ease: 1
      AnimationCurve:
        serializedVersion: 2
        m_Curve: []
        m_PreInfinity: 2
        m_PostInfinity: 2
        m_RotationOrder: 4
      StartDelay: 0
      Duration: 1
    Rotate:
      AnimationType: 3
      Enabled: 0
      From: {x: 0, y: 0, z: 0}
      To: {x: 0, y: 0, z: 0}
      By: {x: 0, y: 0, z: 5}
      UseCustomFromAndTo: 0
      Vibrato: 10
      Elasticity: 1
      NumberOfLoops: -1
      LoopType: 1
      RotateMode: 0
      EaseType: 0
      Ease: 25
      AnimationCurve:
        serializedVersion: 2
        m_Curve: []
        m_PreInfinity: 2
        m_PostInfinity: 2
        m_RotationOrder: 4
      StartDelay: 0
      Duration: 1
    Scale:
      AnimationType: 3
      Enabled: 1
      From: {x: 1, y: 1, z: 1}
      To: {x: 0.5, y: 1.3, z: 1}
      By: {x: 0, y: 0, z: 0}
      UseCustomFromAndTo: 0
      Vibrato: 10
      Elasticity: 1
      NumberOfLoops: -1
      LoopType: 1
      EaseType: 0
      Ease: 28
      AnimationCurve:
        serializedVersion: 2
        m_Curve: []
        m_PreInfinity: 2
        m_PostInfinity: 2
        m_RotationOrder: 4
      StartDelay: 0
      Duration: 0.6
    Fade:
      AnimationType: 3
      Enabled: 0
      From: 0
      To: 1
      By: 0.5
      UseCustomFromAndTo: 0
      NumberOfLoops: -1
      LoopType: 1
      EaseType: 0
      Ease: 1
      AnimationCurve:
        serializedVersion: 2
        m_Curve: []
        m_PreInfinity: 2
        m_PostInfinity: 2
        m_RotationOrder: 4
      StartDelay: 0
      Duration: 0.4
  Category: Elastic
  Name: StretchAndShrinkVerticalSlow
--- !u!114 &114088785426899378
MonoBehaviour:
  m_ObjectHideFlags: 0
  m_CorrespondingSourceObject: {fileID: 0}
  m_PrefabInternal: {fileID: 0}
  m_GameObject: {fileID: 0}
  m_Enabled: 1
  m_EditorHideFlags: 0
  m_Script: {fileID: 11500000, guid: fe5b16c60b843134eb75c4ba6a7b6f52, type: 3}
  m_Name: DeepScaleNormal
  m_EditorClassIdentifier: 
  Animation:
    AnimationType: 3
    Move:
      AnimationType: 3
      Enabled: 0
      From: {x: 0, y: 0, z: 0}
      To: {x: 0, y: 0, z: 0}
      By: {x: 0, y: 20, z: 0}
      UseCustomFromAndTo: 0
      Vibrato: 10
      Elasticity: 1
      NumberOfLoops: -1
      LoopType: 1
      Direction: 0
      CustomPosition: {x: 0, y: 0, z: 0}
      EaseType: 0
      Ease: 1
      AnimationCurve:
        serializedVersion: 2
        m_Curve: []
        m_PreInfinity: 2
        m_PostInfinity: 2
        m_RotationOrder: 4
      StartDelay: 0
      Duration: 1
    Rotate:
      AnimationType: 3
      Enabled: 0
      From: {x: 0, y: 0, z: 0}
      To: {x: 0, y: 0, z: 0}
      By: {x: 0, y: 0, z: 5}
      UseCustomFromAndTo: 0
      Vibrato: 10
      Elasticity: 1
      NumberOfLoops: -1
      LoopType: 1
      RotateMode: 0
      EaseType: 0
      Ease: 25
      AnimationCurve:
        serializedVersion: 2
        m_Curve: []
        m_PreInfinity: 2
        m_PostInfinity: 2
        m_RotationOrder: 4
      StartDelay: 0
      Duration: 1
    Scale:
      AnimationType: 3
      Enabled: 1
      From: {x: 0.5, y: 0.5, z: 1}
      To: {x: 1, y: 1, z: 1}
      By: {x: 0, y: 0, z: 0}
      UseCustomFromAndTo: 0
      Vibrato: 10
      Elasticity: 1
      NumberOfLoops: -1
      LoopType: 1
      EaseType: 0
      Ease: 25
      AnimationCurve:
        serializedVersion: 2
        m_Curve: []
        m_PreInfinity: 2
        m_PostInfinity: 2
        m_RotationOrder: 4
      StartDelay: 0
      Duration: 0.75
    Fade:
      AnimationType: 3
      Enabled: 0
      From: 0
      To: 1
      By: 0.5
      UseCustomFromAndTo: 0
      NumberOfLoops: -1
      LoopType: 1
      EaseType: 0
      Ease: 1
      AnimationCurve:
        serializedVersion: 2
        m_Curve: []
        m_PreInfinity: 2
        m_PostInfinity: 2
        m_RotationOrder: 4
      StartDelay: 0
      Duration: 0.4
  Category: Elastic
  Name: DeepScaleNormal
--- !u!114 &114165993142748590
MonoBehaviour:
  m_ObjectHideFlags: 0
  m_CorrespondingSourceObject: {fileID: 0}
  m_PrefabInternal: {fileID: 0}
  m_GameObject: {fileID: 0}
  m_Enabled: 1
  m_EditorHideFlags: 0
  m_Script: {fileID: 11500000, guid: fe5b16c60b843134eb75c4ba6a7b6f52, type: 3}
  m_Name: ScaleNormal
  m_EditorClassIdentifier: 
  Animation:
    AnimationType: 3
    Move:
      AnimationType: 3
      Enabled: 0
      From: {x: 0, y: 0, z: 0}
      To: {x: 0, y: 0, z: 0}
      By: {x: 0, y: 20, z: 0}
      UseCustomFromAndTo: 0
      Vibrato: 10
      Elasticity: 1
      NumberOfLoops: -1
      LoopType: 1
      Direction: 0
      CustomPosition: {x: 0, y: 0, z: 0}
      EaseType: 0
      Ease: 1
      AnimationCurve:
        serializedVersion: 2
        m_Curve: []
        m_PreInfinity: 2
        m_PostInfinity: 2
        m_RotationOrder: 4
      StartDelay: 0
      Duration: 1
    Rotate:
      AnimationType: 3
      Enabled: 0
      From: {x: 0, y: 0, z: 0}
      To: {x: 0, y: 0, z: 0}
      By: {x: 0, y: 0, z: 5}
      UseCustomFromAndTo: 0
      Vibrato: 10
      Elasticity: 1
      NumberOfLoops: -1
      LoopType: 1
      RotateMode: 0
      EaseType: 0
      Ease: 25
      AnimationCurve:
        serializedVersion: 2
        m_Curve: []
        m_PreInfinity: 2
        m_PostInfinity: 2
        m_RotationOrder: 4
      StartDelay: 0
      Duration: 1
    Scale:
      AnimationType: 3
      Enabled: 1
      From: {x: 0.95, y: 0.95, z: 1}
      To: {x: 1.05, y: 1.05, z: 1}
      By: {x: 0, y: 0, z: 0}
      UseCustomFromAndTo: 0
      Vibrato: 10
      Elasticity: 1
      NumberOfLoops: -1
      LoopType: 1
      EaseType: 0
      Ease: 25
      AnimationCurve:
        serializedVersion: 2
        m_Curve: []
        m_PreInfinity: 2
        m_PostInfinity: 2
        m_RotationOrder: 4
      StartDelay: 0
      Duration: 0.75
    Fade:
      AnimationType: 3
      Enabled: 0
      From: 0
      To: 1
      By: 0.5
      UseCustomFromAndTo: 0
      NumberOfLoops: -1
      LoopType: 1
      EaseType: 0
      Ease: 1
      AnimationCurve:
        serializedVersion: 2
        m_Curve: []
        m_PreInfinity: 2
        m_PostInfinity: 2
        m_RotationOrder: 4
      StartDelay: 0
      Duration: 0.4
  Category: Elastic
  Name: ScaleNormal
--- !u!114 &114174419445507394
MonoBehaviour:
  m_ObjectHideFlags: 0
  m_CorrespondingSourceObject: {fileID: 0}
  m_PrefabInternal: {fileID: 0}
  m_GameObject: {fileID: 0}
  m_Enabled: 1
  m_EditorHideFlags: 0
  m_Script: {fileID: 11500000, guid: fe5b16c60b843134eb75c4ba6a7b6f52, type: 3}
  m_Name: StretchAndShrinkHorizontalSlow
  m_EditorClassIdentifier: 
  Animation:
    AnimationType: 3
    Move:
      AnimationType: 3
      Enabled: 0
      From: {x: 0, y: 0, z: 0}
      To: {x: 0, y: 0, z: 0}
      By: {x: 0, y: 20, z: 0}
      UseCustomFromAndTo: 0
      Vibrato: 10
      Elasticity: 1
      NumberOfLoops: -1
      LoopType: 1
      Direction: 0
      CustomPosition: {x: 0, y: 0, z: 0}
      EaseType: 0
      Ease: 1
      AnimationCurve:
        serializedVersion: 2
        m_Curve: []
        m_PreInfinity: 2
        m_PostInfinity: 2
        m_RotationOrder: 4
      StartDelay: 0
      Duration: 1
    Rotate:
      AnimationType: 3
      Enabled: 0
      From: {x: 0, y: 0, z: 0}
      To: {x: 0, y: 0, z: 0}
      By: {x: 0, y: 0, z: 5}
      UseCustomFromAndTo: 0
      Vibrato: 10
      Elasticity: 1
      NumberOfLoops: -1
      LoopType: 1
      RotateMode: 0
      EaseType: 0
      Ease: 25
      AnimationCurve:
        serializedVersion: 2
        m_Curve: []
        m_PreInfinity: 2
        m_PostInfinity: 2
        m_RotationOrder: 4
      StartDelay: 0
      Duration: 1
    Scale:
      AnimationType: 3
      Enabled: 1
      From: {x: 1, y: 1, z: 1}
      To: {x: 1.3, y: 0.5, z: 1}
      By: {x: 0, y: 0, z: 0}
      UseCustomFromAndTo: 0
      Vibrato: 10
      Elasticity: 1
      NumberOfLoops: -1
      LoopType: 1
      EaseType: 0
      Ease: 28
      AnimationCurve:
        serializedVersion: 2
        m_Curve: []
        m_PreInfinity: 2
        m_PostInfinity: 2
        m_RotationOrder: 4
      StartDelay: 0
      Duration: 0.6
    Fade:
      AnimationType: 3
      Enabled: 0
      From: 0
      To: 1
      By: 0.5
      UseCustomFromAndTo: 0
      NumberOfLoops: -1
      LoopType: 1
      EaseType: 0
      Ease: 1
      AnimationCurve:
        serializedVersion: 2
        m_Curve: []
        m_PreInfinity: 2
        m_PostInfinity: 2
        m_RotationOrder: 4
      StartDelay: 0
      Duration: 0.4
  Category: Elastic
  Name: StretchAndShrinkHorizontalSlow
--- !u!114 &114180484545894236
MonoBehaviour:
  m_ObjectHideFlags: 0
  m_CorrespondingSourceObject: {fileID: 0}
  m_PrefabInternal: {fileID: 0}
  m_GameObject: {fileID: 0}
  m_Enabled: 1
  m_EditorHideFlags: 0
  m_Script: {fileID: 11500000, guid: fe5b16c60b843134eb75c4ba6a7b6f52, type: 3}
  m_Name: BlinkSlow
  m_EditorClassIdentifier: 
  Animation:
    AnimationType: 3
    Move:
      AnimationType: 3
      Enabled: 0
      From: {x: 0, y: 0, z: 0}
      To: {x: 0, y: 0, z: 0}
      By: {x: 0, y: 30, z: 0}
      UseCustomFromAndTo: 0
      Vibrato: 10
      Elasticity: 1
      NumberOfLoops: -1
      LoopType: 1
      Direction: 0
      CustomPosition: {x: 0, y: 0, z: 0}
      EaseType: 0
      Ease: 25
      AnimationCurve:
        serializedVersion: 2
        m_Curve: []
        m_PreInfinity: 2
        m_PostInfinity: 2
        m_RotationOrder: 4
      StartDelay: 0
      Duration: 2
    Rotate:
      AnimationType: 3
      Enabled: 0
      From: {x: 0, y: 0, z: 0}
      To: {x: 0, y: 0, z: 0}
      By: {x: 0, y: 0, z: 5}
      UseCustomFromAndTo: 0
      Vibrato: 10
      Elasticity: 1
      NumberOfLoops: -1
      LoopType: 1
      RotateMode: 0
      EaseType: 0
      Ease: 25
      AnimationCurve:
        serializedVersion: 2
        m_Curve: []
        m_PreInfinity: 2
        m_PostInfinity: 2
        m_RotationOrder: 4
      StartDelay: 0
      Duration: 1
    Scale:
      AnimationType: 3
      Enabled: 1
      From: {x: 1, y: 1, z: 1}
      To: {x: 1, y: 0.3, z: 1}
      By: {x: 0, y: 0, z: 0}
      UseCustomFromAndTo: 0
      Vibrato: 10
      Elasticity: 1
      NumberOfLoops: -1
      LoopType: 1
      EaseType: 0
      Ease: 23
      AnimationCurve:
        serializedVersion: 2
        m_Curve: []
        m_PreInfinity: 2
        m_PostInfinity: 2
        m_RotationOrder: 4
      StartDelay: 0
      Duration: 0.8
    Fade:
      AnimationType: 3
      Enabled: 0
      From: 0
      To: 1
      By: 0.5
      UseCustomFromAndTo: 0
      NumberOfLoops: -1
      LoopType: 1
      EaseType: 0
      Ease: 1
      AnimationCurve:
        serializedVersion: 2
        m_Curve: []
        m_PreInfinity: 2
        m_PostInfinity: 2
        m_RotationOrder: 4
      StartDelay: 0
      Duration: 0.4
  Category: Elastic
  Name: BlinkSlow
--- !u!114 &114195585840373938
MonoBehaviour:
  m_ObjectHideFlags: 0
  m_CorrespondingSourceObject: {fileID: 0}
  m_PrefabInternal: {fileID: 0}
  m_GameObject: {fileID: 0}
  m_Enabled: 1
  m_EditorHideFlags: 0
  m_Script: {fileID: 11500000, guid: fe5b16c60b843134eb75c4ba6a7b6f52, type: 3}
  m_Name: StretchAndShrinkVerticalFast
  m_EditorClassIdentifier: 
  Animation:
    AnimationType: 3
    Move:
      AnimationType: 3
      Enabled: 0
      From: {x: 0, y: 0, z: 0}
      To: {x: 0, y: 0, z: 0}
      By: {x: 0, y: 20, z: 0}
      UseCustomFromAndTo: 0
      Vibrato: 10
      Elasticity: 1
      NumberOfLoops: -1
      LoopType: 1
      Direction: 0
      CustomPosition: {x: 0, y: 0, z: 0}
      EaseType: 0
      Ease: 1
      AnimationCurve:
        serializedVersion: 2
        m_Curve: []
        m_PreInfinity: 2
        m_PostInfinity: 2
        m_RotationOrder: 4
      StartDelay: 0
      Duration: 1
    Rotate:
      AnimationType: 3
      Enabled: 0
      From: {x: 0, y: 0, z: 0}
      To: {x: 0, y: 0, z: 0}
      By: {x: 0, y: 0, z: 5}
      UseCustomFromAndTo: 0
      Vibrato: 10
      Elasticity: 1
      NumberOfLoops: -1
      LoopType: 1
      RotateMode: 0
      EaseType: 0
      Ease: 25
      AnimationCurve:
        serializedVersion: 2
        m_Curve: []
        m_PreInfinity: 2
        m_PostInfinity: 2
        m_RotationOrder: 4
      StartDelay: 0
      Duration: 1
    Scale:
      AnimationType: 3
      Enabled: 1
      From: {x: 1, y: 1, z: 1}
      To: {x: 0.5, y: 1.3, z: 1}
      By: {x: 0, y: 0, z: 0}
      UseCustomFromAndTo: 0
      Vibrato: 10
      Elasticity: 1
      NumberOfLoops: -1
      LoopType: 1
      EaseType: 0
      Ease: 28
      AnimationCurve:
        serializedVersion: 2
        m_Curve: []
        m_PreInfinity: 2
        m_PostInfinity: 2
        m_RotationOrder: 4
      StartDelay: 0
      Duration: 0.2
    Fade:
      AnimationType: 3
      Enabled: 0
      From: 0
      To: 1
      By: 0.5
      UseCustomFromAndTo: 0
      NumberOfLoops: -1
      LoopType: 1
      EaseType: 0
      Ease: 1
      AnimationCurve:
        serializedVersion: 2
        m_Curve: []
        m_PreInfinity: 2
        m_PostInfinity: 2
        m_RotationOrder: 4
      StartDelay: 0
      Duration: 0.4
  Category: Elastic
  Name: StretchAndShrinkVerticalFast
--- !u!114 &114196230412556540
MonoBehaviour:
  m_ObjectHideFlags: 0
  m_CorrespondingSourceObject: {fileID: 0}
  m_PrefabInternal: {fileID: 0}
  m_GameObject: {fileID: 0}
  m_Enabled: 1
  m_EditorHideFlags: 0
  m_Script: {fileID: 11500000, guid: fe5b16c60b843134eb75c4ba6a7b6f52, type: 3}
  m_Name: Rotate5
  m_EditorClassIdentifier: 
  Animation:
    AnimationType: 3
    Move:
      AnimationType: 3
      Enabled: 0
      From: {x: 0, y: 0, z: 0}
      To: {x: 0, y: 0, z: 0}
      By: {x: 0, y: 20, z: 0}
      UseCustomFromAndTo: 0
      Vibrato: 10
      Elasticity: 1
      NumberOfLoops: -1
      LoopType: 1
      Direction: 0
      CustomPosition: {x: 0, y: 0, z: 0}
      EaseType: 0
      Ease: 1
      AnimationCurve:
        serializedVersion: 2
        m_Curve: []
        m_PreInfinity: 2
        m_PostInfinity: 2
        m_RotationOrder: 4
      StartDelay: 0
      Duration: 1
    Rotate:
      AnimationType: 3
      Enabled: 1
      From: {x: 0, y: 0, z: 0}
      To: {x: 0, y: 0, z: 0}
      By: {x: 0, y: 0, z: 5}
      UseCustomFromAndTo: 0
      Vibrato: 10
      Elasticity: 1
      NumberOfLoops: -1
      LoopType: 1
      RotateMode: 0
      EaseType: 0
      Ease: 25
      AnimationCurve:
        serializedVersion: 2
        m_Curve: []
        m_PreInfinity: 2
        m_PostInfinity: 2
        m_RotationOrder: 4
      StartDelay: 0
      Duration: 1
    Scale:
      AnimationType: 3
      Enabled: 0
      From: {x: 0.8, y: 0.8, z: 1}
      To: {x: 1.2, y: 1.2, z: 1}
      By: {x: 0, y: 0, z: 0}
      UseCustomFromAndTo: 0
      Vibrato: 10
      Elasticity: 1
      NumberOfLoops: -1
      LoopType: 1
      EaseType: 0
      Ease: 4
      AnimationCurve:
        serializedVersion: 2
        m_Curve: []
        m_PreInfinity: 2
        m_PostInfinity: 2
        m_RotationOrder: 4
      StartDelay: 0
      Duration: 0.25
    Fade:
      AnimationType: 3
      Enabled: 0
      From: 0
      To: 1
      By: 0.5
      UseCustomFromAndTo: 0
      NumberOfLoops: -1
      LoopType: 1
      EaseType: 0
      Ease: 1
      AnimationCurve:
        serializedVersion: 2
        m_Curve: []
        m_PreInfinity: 2
        m_PostInfinity: 2
        m_RotationOrder: 4
      StartDelay: 0
      Duration: 0.4
  Category: Elastic
  Name: Rotate5
--- !u!114 &114221049657123874
MonoBehaviour:
  m_ObjectHideFlags: 0
  m_CorrespondingSourceObject: {fileID: 0}
  m_PrefabInternal: {fileID: 0}
  m_GameObject: {fileID: 0}
  m_Enabled: 1
  m_EditorHideFlags: 0
  m_Script: {fileID: 11500000, guid: fe5b16c60b843134eb75c4ba6a7b6f52, type: 3}
  m_Name: BlinkFast
  m_EditorClassIdentifier: 
  Animation:
    AnimationType: 3
    Move:
      AnimationType: 3
      Enabled: 0
      From: {x: 0, y: 0, z: 0}
      To: {x: 0, y: 0, z: 0}
      By: {x: 0, y: 30, z: 0}
      UseCustomFromAndTo: 0
      Vibrato: 10
      Elasticity: 1
      NumberOfLoops: -1
      LoopType: 1
      Direction: 0
      CustomPosition: {x: 0, y: 0, z: 0}
      EaseType: 0
      Ease: 25
      AnimationCurve:
        serializedVersion: 2
        m_Curve: []
        m_PreInfinity: 2
        m_PostInfinity: 2
        m_RotationOrder: 4
      StartDelay: 0
      Duration: 2
    Rotate:
      AnimationType: 3
      Enabled: 0
      From: {x: 0, y: 0, z: 0}
      To: {x: 0, y: 0, z: 0}
      By: {x: 0, y: 0, z: 5}
      UseCustomFromAndTo: 0
      Vibrato: 10
      Elasticity: 1
      NumberOfLoops: -1
      LoopType: 1
      RotateMode: 0
      EaseType: 0
      Ease: 25
      AnimationCurve:
        serializedVersion: 2
        m_Curve: []
        m_PreInfinity: 2
        m_PostInfinity: 2
        m_RotationOrder: 4
      StartDelay: 0
      Duration: 1
    Scale:
      AnimationType: 3
      Enabled: 1
      From: {x: 1, y: 1, z: 1}
      To: {x: 1, y: 0.3, z: 1}
      By: {x: 0, y: 0, z: 0}
      UseCustomFromAndTo: 0
      Vibrato: 10
      Elasticity: 1
      NumberOfLoops: -1
      LoopType: 1
      EaseType: 0
      Ease: 23
      AnimationCurve:
        serializedVersion: 2
        m_Curve: []
        m_PreInfinity: 2
        m_PostInfinity: 2
        m_RotationOrder: 4
      StartDelay: 0
      Duration: 0.4
    Fade:
      AnimationType: 3
      Enabled: 0
      From: 0
      To: 1
      By: 0.5
      UseCustomFromAndTo: 0
      NumberOfLoops: -1
      LoopType: 1
      EaseType: 0
      Ease: 1
      AnimationCurve:
        serializedVersion: 2
        m_Curve: []
        m_PreInfinity: 2
        m_PostInfinity: 2
        m_RotationOrder: 4
      StartDelay: 0
      Duration: 0.4
  Category: Elastic
  Name: BlinkFast
--- !u!114 &114245334927798486
MonoBehaviour:
  m_ObjectHideFlags: 0
  m_CorrespondingSourceObject: {fileID: 0}
  m_PrefabInternal: {fileID: 0}
  m_GameObject: {fileID: 0}
  m_Enabled: 1
  m_EditorHideFlags: 0
  m_Script: {fileID: 11500000, guid: fe5b16c60b843134eb75c4ba6a7b6f52, type: 3}
  m_Name: StretchAndShrinkVerticalNormal
  m_EditorClassIdentifier: 
  Animation:
    AnimationType: 3
    Move:
      AnimationType: 3
      Enabled: 0
      From: {x: 0, y: 0, z: 0}
      To: {x: 0, y: 0, z: 0}
      By: {x: 0, y: 20, z: 0}
      UseCustomFromAndTo: 0
      Vibrato: 10
      Elasticity: 1
      NumberOfLoops: -1
      LoopType: 1
      Direction: 0
      CustomPosition: {x: 0, y: 0, z: 0}
      EaseType: 0
      Ease: 1
      AnimationCurve:
        serializedVersion: 2
        m_Curve: []
        m_PreInfinity: 2
        m_PostInfinity: 2
        m_RotationOrder: 4
      StartDelay: 0
      Duration: 1
    Rotate:
      AnimationType: 3
      Enabled: 0
      From: {x: 0, y: 0, z: 0}
      To: {x: 0, y: 0, z: 0}
      By: {x: 0, y: 0, z: 5}
      UseCustomFromAndTo: 0
      Vibrato: 10
      Elasticity: 1
      NumberOfLoops: -1
      LoopType: 1
      RotateMode: 0
      EaseType: 0
      Ease: 25
      AnimationCurve:
        serializedVersion: 2
        m_Curve: []
        m_PreInfinity: 2
        m_PostInfinity: 2
        m_RotationOrder: 4
      StartDelay: 0
      Duration: 1
    Scale:
      AnimationType: 3
      Enabled: 1
      From: {x: 1, y: 1, z: 1}
      To: {x: 0.5, y: 1.3, z: 1}
      By: {x: 0, y: 0, z: 0}
      UseCustomFromAndTo: 0
      Vibrato: 10
      Elasticity: 1
      NumberOfLoops: -1
      LoopType: 1
      EaseType: 0
      Ease: 28
      AnimationCurve:
        serializedVersion: 2
        m_Curve: []
        m_PreInfinity: 2
        m_PostInfinity: 2
        m_RotationOrder: 4
      StartDelay: 0
      Duration: 0.4
    Fade:
      AnimationType: 3
      Enabled: 0
      From: 0
      To: 1
      By: 0.5
      UseCustomFromAndTo: 0
      NumberOfLoops: -1
      LoopType: 1
      EaseType: 0
      Ease: 1
      AnimationCurve:
        serializedVersion: 2
        m_Curve: []
        m_PreInfinity: 2
        m_PostInfinity: 2
        m_RotationOrder: 4
      StartDelay: 0
      Duration: 0.4
  Category: Elastic
  Name: StretchAndShrinkVerticalNormal
--- !u!114 &114260230821282486
MonoBehaviour:
  m_ObjectHideFlags: 0
  m_CorrespondingSourceObject: {fileID: 0}
  m_PrefabInternal: {fileID: 0}
  m_GameObject: {fileID: 0}
  m_Enabled: 1
  m_EditorHideFlags: 0
  m_Script: {fileID: 11500000, guid: fe5b16c60b843134eb75c4ba6a7b6f52, type: 3}
  m_Name: ElasticHorizontalFast
  m_EditorClassIdentifier: 
  Animation:
    AnimationType: 3
    Move:
      AnimationType: 3
      Enabled: 0
      From: {x: 0, y: 0, z: 0}
      To: {x: 0, y: 0, z: 0}
      By: {x: 0, y: 20, z: 0}
      UseCustomFromAndTo: 0
      Vibrato: 10
      Elasticity: 1
      NumberOfLoops: -1
      LoopType: 1
      Direction: 0
      CustomPosition: {x: 0, y: 0, z: 0}
      EaseType: 0
      Ease: 1
      AnimationCurve:
        serializedVersion: 2
        m_Curve: []
        m_PreInfinity: 2
        m_PostInfinity: 2
        m_RotationOrder: 4
      StartDelay: 0
      Duration: 1
    Rotate:
      AnimationType: 3
      Enabled: 0
      From: {x: 0, y: 0, z: 0}
      To: {x: 0, y: 0, z: 0}
      By: {x: 0, y: 0, z: 5}
      UseCustomFromAndTo: 0
      Vibrato: 10
      Elasticity: 1
      NumberOfLoops: -1
      LoopType: 1
      RotateMode: 0
      EaseType: 0
      Ease: 25
      AnimationCurve:
        serializedVersion: 2
        m_Curve: []
        m_PreInfinity: 2
        m_PostInfinity: 2
        m_RotationOrder: 4
      StartDelay: 0
      Duration: 1
    Scale:
      AnimationType: 3
      Enabled: 1
      From: {x: 1, y: 1, z: 1}
      To: {x: 1.3, y: 1, z: 1}
      By: {x: 0, y: 0, z: 0}
      UseCustomFromAndTo: 0
      Vibrato: 10
      Elasticity: 1
      NumberOfLoops: -1
      LoopType: 1
      EaseType: 0
      Ease: 31
      AnimationCurve:
        serializedVersion: 2
        m_Curve: []
        m_PreInfinity: 2
        m_PostInfinity: 2
        m_RotationOrder: 4
      StartDelay: 0
      Duration: 0.2
    Fade:
      AnimationType: 3
      Enabled: 0
      From: 0
      To: 1
      By: 0.5
      UseCustomFromAndTo: 0
      NumberOfLoops: -1
      LoopType: 1
      EaseType: 0
      Ease: 1
      AnimationCurve:
        serializedVersion: 2
        m_Curve: []
        m_PreInfinity: 2
        m_PostInfinity: 2
        m_RotationOrder: 4
      StartDelay: 0
      Duration: 0.4
  Category: Elastic
  Name: ElasticHorizontalFast
--- !u!114 &114353295046973174
MonoBehaviour:
  m_ObjectHideFlags: 0
  m_CorrespondingSourceObject: {fileID: 0}
  m_PrefabInternal: {fileID: 0}
  m_GameObject: {fileID: 0}
  m_Enabled: 1
  m_EditorHideFlags: 0
  m_Script: {fileID: 11500000, guid: fe5b16c60b843134eb75c4ba6a7b6f52, type: 3}
  m_Name: PressedVerticalNormal
  m_EditorClassIdentifier: 
  Animation:
    AnimationType: 3
    Move:
      AnimationType: 3
      Enabled: 0
      From: {x: 0, y: 0, z: 0}
      To: {x: 0, y: 0, z: 0}
      By: {x: 0, y: 30, z: 0}
      UseCustomFromAndTo: 0
      Vibrato: 10
      Elasticity: 1
      NumberOfLoops: -1
      LoopType: 1
      Direction: 0
      CustomPosition: {x: 0, y: 0, z: 0}
      EaseType: 0
      Ease: 25
      AnimationCurve:
        serializedVersion: 2
        m_Curve: []
        m_PreInfinity: 2
        m_PostInfinity: 2
        m_RotationOrder: 4
      StartDelay: 0
      Duration: 2
    Rotate:
      AnimationType: 3
      Enabled: 0
      From: {x: 0, y: 0, z: 0}
      To: {x: 0, y: 0, z: 0}
      By: {x: 0, y: 0, z: 5}
      UseCustomFromAndTo: 0
      Vibrato: 10
      Elasticity: 1
      NumberOfLoops: -1
      LoopType: 1
      RotateMode: 0
      EaseType: 0
      Ease: 25
      AnimationCurve:
        serializedVersion: 2
        m_Curve: []
        m_PreInfinity: 2
        m_PostInfinity: 2
        m_RotationOrder: 4
      StartDelay: 0
      Duration: 1
    Scale:
      AnimationType: 3
      Enabled: 1
      From: {x: 1, y: 1, z: 1}
      To: {x: 0.3, y: 1, z: 1}
      By: {x: 0, y: 0, z: 0}
      UseCustomFromAndTo: 0
      Vibrato: 10
      Elasticity: 1
      NumberOfLoops: -1
      LoopType: 1
      EaseType: 0
      Ease: 23
      AnimationCurve:
        serializedVersion: 2
        m_Curve: []
        m_PreInfinity: 2
        m_PostInfinity: 2
        m_RotationOrder: 4
      StartDelay: 0
      Duration: 0.6
    Fade:
      AnimationType: 3
      Enabled: 0
      From: 0
      To: 1
      By: 0.5
      UseCustomFromAndTo: 0
      NumberOfLoops: -1
      LoopType: 1
      EaseType: 0
      Ease: 1
      AnimationCurve:
        serializedVersion: 2
        m_Curve: []
        m_PreInfinity: 2
        m_PostInfinity: 2
        m_RotationOrder: 4
      StartDelay: 0
      Duration: 0.4
  Category: Elastic
  Name: PressedVerticalNormal
--- !u!114 &114373054979367882
MonoBehaviour:
  m_ObjectHideFlags: 0
  m_CorrespondingSourceObject: {fileID: 0}
  m_PrefabInternal: {fileID: 0}
  m_GameObject: {fileID: 0}
  m_Enabled: 1
  m_EditorHideFlags: 0
  m_Script: {fileID: 11500000, guid: fe5b16c60b843134eb75c4ba6a7b6f52, type: 3}
  m_Name: ElasticHorizontalSlow
  m_EditorClassIdentifier: 
  Animation:
    AnimationType: 3
    Move:
      AnimationType: 3
      Enabled: 0
      From: {x: 0, y: 0, z: 0}
      To: {x: 0, y: 0, z: 0}
      By: {x: 0, y: 20, z: 0}
      UseCustomFromAndTo: 0
      Vibrato: 10
      Elasticity: 1
      NumberOfLoops: -1
      LoopType: 1
      Direction: 0
      CustomPosition: {x: 0, y: 0, z: 0}
      EaseType: 0
      Ease: 1
      AnimationCurve:
        serializedVersion: 2
        m_Curve: []
        m_PreInfinity: 2
        m_PostInfinity: 2
        m_RotationOrder: 4
      StartDelay: 0
      Duration: 1
    Rotate:
      AnimationType: 3
      Enabled: 0
      From: {x: 0, y: 0, z: 0}
      To: {x: 0, y: 0, z: 0}
      By: {x: 0, y: 0, z: 5}
      UseCustomFromAndTo: 0
      Vibrato: 10
      Elasticity: 1
      NumberOfLoops: -1
      LoopType: 1
      RotateMode: 0
      EaseType: 0
      Ease: 25
      AnimationCurve:
        serializedVersion: 2
        m_Curve: []
        m_PreInfinity: 2
        m_PostInfinity: 2
        m_RotationOrder: 4
      StartDelay: 0
      Duration: 1
    Scale:
      AnimationType: 3
      Enabled: 1
      From: {x: 1, y: 1, z: 1}
      To: {x: 1.3, y: 1, z: 1}
      By: {x: 0, y: 0, z: 0}
      UseCustomFromAndTo: 0
      Vibrato: 10
      Elasticity: 1
      NumberOfLoops: -1
      LoopType: 1
      EaseType: 0
      Ease: 31
      AnimationCurve:
        serializedVersion: 2
        m_Curve: []
        m_PreInfinity: 2
        m_PostInfinity: 2
        m_RotationOrder: 4
      StartDelay: 0
      Duration: 0.8
    Fade:
      AnimationType: 3
      Enabled: 0
      From: 0
      To: 1
      By: 0.5
      UseCustomFromAndTo: 0
      NumberOfLoops: -1
      LoopType: 1
      EaseType: 0
      Ease: 1
      AnimationCurve:
        serializedVersion: 2
        m_Curve: []
        m_PreInfinity: 2
        m_PostInfinity: 2
        m_RotationOrder: 4
      StartDelay: 0
      Duration: 0.4
  Category: Elastic
  Name: ElasticHorizontalSlow
--- !u!114 &114373127723196372
MonoBehaviour:
  m_ObjectHideFlags: 0
  m_CorrespondingSourceObject: {fileID: 0}
  m_PrefabInternal: {fileID: 0}
  m_GameObject: {fileID: 0}
  m_Enabled: 1
  m_EditorHideFlags: 0
  m_Script: {fileID: 11500000, guid: fe5b16c60b843134eb75c4ba6a7b6f52, type: 3}
  m_Name: SlideVertical
  m_EditorClassIdentifier: 
  Animation:
    AnimationType: 3
    Move:
      AnimationType: 3
      Enabled: 1
      From: {x: 0, y: 0, z: 0}
      To: {x: 0, y: 0, z: 0}
      By: {x: 0, y: 10, z: 0}
      UseCustomFromAndTo: 0
      Vibrato: 10
      Elasticity: 1
      NumberOfLoops: -1
      LoopType: 1
      Direction: 0
      CustomPosition: {x: 0, y: 0, z: 0}
      EaseType: 0
      Ease: 25
      AnimationCurve:
        serializedVersion: 2
        m_Curve: []
        m_PreInfinity: 2
        m_PostInfinity: 2
        m_RotationOrder: 4
      StartDelay: 0
      Duration: 2
    Rotate:
      AnimationType: 3
      Enabled: 0
      From: {x: 0, y: 0, z: 0}
      To: {x: 0, y: 0, z: 0}
      By: {x: 0, y: 0, z: 5}
      UseCustomFromAndTo: 0
      Vibrato: 10
      Elasticity: 1
      NumberOfLoops: -1
      LoopType: 1
      RotateMode: 0
      EaseType: 0
      Ease: 25
      AnimationCurve:
        serializedVersion: 2
        m_Curve: []
        m_PreInfinity: 2
        m_PostInfinity: 2
        m_RotationOrder: 4
      StartDelay: 0
      Duration: 1
    Scale:
      AnimationType: 3
      Enabled: 0
      From: {x: 0.95, y: 0.95, z: 1}
      To: {x: 1.05, y: 1.05, z: 1}
      By: {x: 0, y: 0, z: 0}
      UseCustomFromAndTo: 0
      Vibrato: 10
      Elasticity: 1
      NumberOfLoops: -1
      LoopType: 1
      EaseType: 0
      Ease: 25
      AnimationCurve:
        serializedVersion: 2
        m_Curve: []
        m_PreInfinity: 2
        m_PostInfinity: 2
        m_RotationOrder: 4
      StartDelay: 0
      Duration: 1
    Fade:
      AnimationType: 3
      Enabled: 0
      From: 0
      To: 1
      By: 0.5
      UseCustomFromAndTo: 0
      NumberOfLoops: -1
      LoopType: 1
      EaseType: 0
      Ease: 1
      AnimationCurve:
        serializedVersion: 2
        m_Curve: []
        m_PreInfinity: 2
        m_PostInfinity: 2
        m_RotationOrder: 4
      StartDelay: 0
      Duration: 0.4
  Category: Elastic
  Name: SlideVertical
--- !u!114 &114391285872156764
MonoBehaviour:
  m_ObjectHideFlags: 0
  m_CorrespondingSourceObject: {fileID: 0}
  m_PrefabInternal: {fileID: 0}
  m_GameObject: {fileID: 0}
  m_Enabled: 1
  m_EditorHideFlags: 0
  m_Script: {fileID: 11500000, guid: fe5b16c60b843134eb75c4ba6a7b6f52, type: 3}
  m_Name: BlinkNormal
  m_EditorClassIdentifier: 
  Animation:
    AnimationType: 3
    Move:
      AnimationType: 3
      Enabled: 0
      From: {x: 0, y: 0, z: 0}
      To: {x: 0, y: 0, z: 0}
      By: {x: 0, y: 30, z: 0}
      UseCustomFromAndTo: 0
      Vibrato: 10
      Elasticity: 1
      NumberOfLoops: -1
      LoopType: 1
      Direction: 0
      CustomPosition: {x: 0, y: 0, z: 0}
      EaseType: 0
      Ease: 25
      AnimationCurve:
        serializedVersion: 2
        m_Curve: []
        m_PreInfinity: 2
        m_PostInfinity: 2
        m_RotationOrder: 4
      StartDelay: 0
      Duration: 2
    Rotate:
      AnimationType: 3
      Enabled: 0
      From: {x: 0, y: 0, z: 0}
      To: {x: 0, y: 0, z: 0}
      By: {x: 0, y: 0, z: 5}
      UseCustomFromAndTo: 0
      Vibrato: 10
      Elasticity: 1
      NumberOfLoops: -1
      LoopType: 1
      RotateMode: 0
      EaseType: 0
      Ease: 25
      AnimationCurve:
        serializedVersion: 2
        m_Curve: []
        m_PreInfinity: 2
        m_PostInfinity: 2
        m_RotationOrder: 4
      StartDelay: 0
      Duration: 1
    Scale:
      AnimationType: 3
      Enabled: 1
      From: {x: 1, y: 1, z: 1}
      To: {x: 1, y: 0.3, z: 1}
      By: {x: 0, y: 0, z: 0}
      UseCustomFromAndTo: 0
      Vibrato: 10
      Elasticity: 1
      NumberOfLoops: -1
      LoopType: 1
      EaseType: 0
      Ease: 23
      AnimationCurve:
        serializedVersion: 2
        m_Curve: []
        m_PreInfinity: 2
        m_PostInfinity: 2
        m_RotationOrder: 4
      StartDelay: 0
      Duration: 0.6
    Fade:
      AnimationType: 3
      Enabled: 0
      From: 0
      To: 1
      By: 0.5
      UseCustomFromAndTo: 0
      NumberOfLoops: -1
      LoopType: 1
      EaseType: 0
      Ease: 1
      AnimationCurve:
        serializedVersion: 2
        m_Curve: []
        m_PreInfinity: 2
        m_PostInfinity: 2
        m_RotationOrder: 4
      StartDelay: 0
      Duration: 0.4
  Category: Elastic
  Name: BlinkNormal
--- !u!114 &114502032318806784
MonoBehaviour:
  m_ObjectHideFlags: 0
  m_CorrespondingSourceObject: {fileID: 0}
  m_PrefabInternal: {fileID: 0}
  m_GameObject: {fileID: 0}
  m_Enabled: 1
  m_EditorHideFlags: 0
  m_Script: {fileID: 11500000, guid: fe5b16c60b843134eb75c4ba6a7b6f52, type: 3}
  m_Name: ElasticVerticalNormal
  m_EditorClassIdentifier: 
  Animation:
    AnimationType: 3
    Move:
      AnimationType: 3
      Enabled: 0
      From: {x: 0, y: 0, z: 0}
      To: {x: 0, y: 0, z: 0}
      By: {x: 0, y: 20, z: 0}
      UseCustomFromAndTo: 0
      Vibrato: 10
      Elasticity: 1
      NumberOfLoops: -1
      LoopType: 1
      Direction: 0
      CustomPosition: {x: 0, y: 0, z: 0}
      EaseType: 0
      Ease: 1
      AnimationCurve:
        serializedVersion: 2
        m_Curve: []
        m_PreInfinity: 2
        m_PostInfinity: 2
        m_RotationOrder: 4
      StartDelay: 0
      Duration: 1
    Rotate:
      AnimationType: 3
      Enabled: 0
      From: {x: 0, y: 0, z: 0}
      To: {x: 0, y: 0, z: 0}
      By: {x: 0, y: 0, z: 5}
      UseCustomFromAndTo: 0
      Vibrato: 10
      Elasticity: 1
      NumberOfLoops: -1
      LoopType: 1
      RotateMode: 0
      EaseType: 0
      Ease: 25
      AnimationCurve:
        serializedVersion: 2
        m_Curve: []
        m_PreInfinity: 2
        m_PostInfinity: 2
        m_RotationOrder: 4
      StartDelay: 0
      Duration: 1
    Scale:
      AnimationType: 3
      Enabled: 1
      From: {x: 1, y: 1, z: 1}
      To: {x: 1, y: 1.3, z: 1}
      By: {x: 0, y: 0, z: 0}
      UseCustomFromAndTo: 0
      Vibrato: 10
      Elasticity: 1
      NumberOfLoops: -1
      LoopType: 1
      EaseType: 0
      Ease: 31
      AnimationCurve:
        serializedVersion: 2
        m_Curve: []
        m_PreInfinity: 2
        m_PostInfinity: 2
        m_RotationOrder: 4
      StartDelay: 0
      Duration: 0.4
    Fade:
      AnimationType: 3
      Enabled: 0
      From: 0
      To: 1
      By: 0.5
      UseCustomFromAndTo: 0
      NumberOfLoops: -1
      LoopType: 1
      EaseType: 0
      Ease: 1
      AnimationCurve:
        serializedVersion: 2
        m_Curve: []
        m_PreInfinity: 2
        m_PostInfinity: 2
        m_RotationOrder: 4
      StartDelay: 0
      Duration: 0.4
  Category: Elastic
  Name: ElasticVerticalNormal
--- !u!114 &114550082595601806
MonoBehaviour:
  m_ObjectHideFlags: 0
  m_CorrespondingSourceObject: {fileID: 0}
  m_PrefabInternal: {fileID: 0}
  m_GameObject: {fileID: 0}
  m_Enabled: 1
  m_EditorHideFlags: 0
  m_Script: {fileID: 11500000, guid: fe5b16c60b843134eb75c4ba6a7b6f52, type: 3}
  m_Name: PressedVerticalSlow
  m_EditorClassIdentifier: 
  Animation:
    AnimationType: 3
    Move:
      AnimationType: 3
      Enabled: 0
      From: {x: 0, y: 0, z: 0}
      To: {x: 0, y: 0, z: 0}
      By: {x: 0, y: 30, z: 0}
      UseCustomFromAndTo: 0
      Vibrato: 10
      Elasticity: 1
      NumberOfLoops: -1
      LoopType: 1
      Direction: 0
      CustomPosition: {x: 0, y: 0, z: 0}
      EaseType: 0
      Ease: 25
      AnimationCurve:
        serializedVersion: 2
        m_Curve: []
        m_PreInfinity: 2
        m_PostInfinity: 2
        m_RotationOrder: 4
      StartDelay: 0
      Duration: 2
    Rotate:
      AnimationType: 3
      Enabled: 0
      From: {x: 0, y: 0, z: 0}
      To: {x: 0, y: 0, z: 0}
      By: {x: 0, y: 0, z: 5}
      UseCustomFromAndTo: 0
      Vibrato: 10
      Elasticity: 1
      NumberOfLoops: -1
      LoopType: 1
      RotateMode: 0
      EaseType: 0
      Ease: 25
      AnimationCurve:
        serializedVersion: 2
        m_Curve: []
        m_PreInfinity: 2
        m_PostInfinity: 2
        m_RotationOrder: 4
      StartDelay: 0
      Duration: 1
    Scale:
      AnimationType: 3
      Enabled: 1
      From: {x: 1, y: 1, z: 1}
      To: {x: 0.3, y: 1, z: 1}
      By: {x: 0, y: 0, z: 0}
      UseCustomFromAndTo: 0
      Vibrato: 10
      Elasticity: 1
      NumberOfLoops: -1
      LoopType: 1
      EaseType: 0
      Ease: 23
      AnimationCurve:
        serializedVersion: 2
        m_Curve: []
        m_PreInfinity: 2
        m_PostInfinity: 2
        m_RotationOrder: 4
      StartDelay: 0
      Duration: 0.8
    Fade:
      AnimationType: 3
      Enabled: 0
      From: 0
      To: 1
      By: 0.5
      UseCustomFromAndTo: 0
      NumberOfLoops: -1
      LoopType: 1
      EaseType: 0
      Ease: 1
      AnimationCurve:
        serializedVersion: 2
        m_Curve: []
        m_PreInfinity: 2
        m_PostInfinity: 2
        m_RotationOrder: 4
      StartDelay: 0
      Duration: 0.4
  Category: Elastic
  Name: PressedVerticalSlow
--- !u!114 &114556173569437828
MonoBehaviour:
  m_ObjectHideFlags: 0
  m_CorrespondingSourceObject: {fileID: 0}
  m_PrefabInternal: {fileID: 0}
  m_GameObject: {fileID: 0}
  m_Enabled: 1
  m_EditorHideFlags: 0
  m_Script: {fileID: 11500000, guid: fe5b16c60b843134eb75c4ba6a7b6f52, type: 3}
  m_Name: SlideHorizontal
  m_EditorClassIdentifier: 
  Animation:
    AnimationType: 3
    Move:
      AnimationType: 3
      Enabled: 1
      From: {x: 0, y: 0, z: 0}
      To: {x: 0, y: 0, z: 0}
      By: {x: 10, y: 0, z: 0}
      UseCustomFromAndTo: 0
      Vibrato: 10
      Elasticity: 1
      NumberOfLoops: -1
      LoopType: 1
      Direction: 0
      CustomPosition: {x: 0, y: 0, z: 0}
      EaseType: 0
      Ease: 25
      AnimationCurve:
        serializedVersion: 2
        m_Curve: []
        m_PreInfinity: 2
        m_PostInfinity: 2
        m_RotationOrder: 4
      StartDelay: 0
      Duration: 2
    Rotate:
      AnimationType: 3
      Enabled: 0
      From: {x: 0, y: 0, z: 0}
      To: {x: 0, y: 0, z: 0}
      By: {x: 0, y: 0, z: 5}
      UseCustomFromAndTo: 0
      Vibrato: 10
      Elasticity: 1
      NumberOfLoops: -1
      LoopType: 1
      RotateMode: 0
      EaseType: 0
      Ease: 25
      AnimationCurve:
        serializedVersion: 2
        m_Curve: []
        m_PreInfinity: 2
        m_PostInfinity: 2
        m_RotationOrder: 4
      StartDelay: 0
      Duration: 1
    Scale:
      AnimationType: 3
      Enabled: 0
      From: {x: 0.95, y: 0.95, z: 1}
      To: {x: 1.05, y: 1.05, z: 1}
      By: {x: 0, y: 0, z: 0}
      UseCustomFromAndTo: 0
      Vibrato: 10
      Elasticity: 1
      NumberOfLoops: -1
      LoopType: 1
      EaseType: 0
      Ease: 25
      AnimationCurve:
        serializedVersion: 2
        m_Curve: []
        m_PreInfinity: 2
        m_PostInfinity: 2
        m_RotationOrder: 4
      StartDelay: 0
      Duration: 1
    Fade:
      AnimationType: 3
      Enabled: 0
      From: 0
      To: 1
      By: 0.5
      UseCustomFromAndTo: 0
      NumberOfLoops: -1
      LoopType: 1
      EaseType: 0
      Ease: 1
      AnimationCurve:
        serializedVersion: 2
        m_Curve: []
        m_PreInfinity: 2
        m_PostInfinity: 2
        m_RotationOrder: 4
      StartDelay: 0
      Duration: 0.4
  Category: Elastic
  Name: SlideHorizontal
--- !u!114 &114664269719908496
MonoBehaviour:
  m_ObjectHideFlags: 0
  m_CorrespondingSourceObject: {fileID: 0}
  m_PrefabInternal: {fileID: 0}
  m_GameObject: {fileID: 0}
  m_Enabled: 1
  m_EditorHideFlags: 0
  m_Script: {fileID: 11500000, guid: fe5b16c60b843134eb75c4ba6a7b6f52, type: 3}
  m_Name: ElasticVerticalFast
  m_EditorClassIdentifier: 
  Animation:
    AnimationType: 3
    Move:
      AnimationType: 3
      Enabled: 0
      From: {x: 0, y: 0, z: 0}
      To: {x: 0, y: 0, z: 0}
      By: {x: 0, y: 20, z: 0}
      UseCustomFromAndTo: 0
      Vibrato: 10
      Elasticity: 1
      NumberOfLoops: -1
      LoopType: 1
      Direction: 0
      CustomPosition: {x: 0, y: 0, z: 0}
      EaseType: 0
      Ease: 1
      AnimationCurve:
        serializedVersion: 2
        m_Curve: []
        m_PreInfinity: 2
        m_PostInfinity: 2
        m_RotationOrder: 4
      StartDelay: 0
      Duration: 1
    Rotate:
      AnimationType: 3
      Enabled: 0
      From: {x: 0, y: 0, z: 0}
      To: {x: 0, y: 0, z: 0}
      By: {x: 0, y: 0, z: 5}
      UseCustomFromAndTo: 0
      Vibrato: 10
      Elasticity: 1
      NumberOfLoops: -1
      LoopType: 1
      RotateMode: 0
      EaseType: 0
      Ease: 25
      AnimationCurve:
        serializedVersion: 2
        m_Curve: []
        m_PreInfinity: 2
        m_PostInfinity: 2
        m_RotationOrder: 4
      StartDelay: 0
      Duration: 1
    Scale:
      AnimationType: 3
      Enabled: 1
      From: {x: 1, y: 1, z: 1}
      To: {x: 1, y: 1.3, z: 1}
      By: {x: 0, y: 0, z: 0}
      UseCustomFromAndTo: 0
      Vibrato: 10
      Elasticity: 1
      NumberOfLoops: -1
      LoopType: 1
      EaseType: 0
      Ease: 31
      AnimationCurve:
        serializedVersion: 2
        m_Curve: []
        m_PreInfinity: 2
        m_PostInfinity: 2
        m_RotationOrder: 4
      StartDelay: 0
      Duration: 0.2
    Fade:
      AnimationType: 3
      Enabled: 0
      From: 0
      To: 1
      By: 0.5
      UseCustomFromAndTo: 0
      NumberOfLoops: -1
      LoopType: 1
      EaseType: 0
      Ease: 1
      AnimationCurve:
        serializedVersion: 2
        m_Curve: []
        m_PreInfinity: 2
        m_PostInfinity: 2
        m_RotationOrder: 4
      StartDelay: 0
      Duration: 0.4
  Category: Elastic
  Name: ElasticVerticalFast
--- !u!114 &114670334799195428
MonoBehaviour:
  m_ObjectHideFlags: 0
  m_CorrespondingSourceObject: {fileID: 0}
  m_PrefabInternal: {fileID: 0}
  m_GameObject: {fileID: 0}
  m_Enabled: 1
  m_EditorHideFlags: 0
  m_Script: {fileID: 11500000, guid: fe5b16c60b843134eb75c4ba6a7b6f52, type: 3}
  m_Name: DeepScaleSlow
  m_EditorClassIdentifier: 
  Animation:
    AnimationType: 3
    Move:
      AnimationType: 3
      Enabled: 0
      From: {x: 0, y: 0, z: 0}
      To: {x: 0, y: 0, z: 0}
      By: {x: 0, y: 20, z: 0}
      UseCustomFromAndTo: 0
      Vibrato: 10
      Elasticity: 1
      NumberOfLoops: -1
      LoopType: 1
      Direction: 0
      CustomPosition: {x: 0, y: 0, z: 0}
      EaseType: 0
      Ease: 1
      AnimationCurve:
        serializedVersion: 2
        m_Curve: []
        m_PreInfinity: 2
        m_PostInfinity: 2
        m_RotationOrder: 4
      StartDelay: 0
      Duration: 1
    Rotate:
      AnimationType: 3
      Enabled: 0
      From: {x: 0, y: 0, z: 0}
      To: {x: 0, y: 0, z: 0}
      By: {x: 0, y: 0, z: 5}
      UseCustomFromAndTo: 0
      Vibrato: 10
      Elasticity: 1
      NumberOfLoops: -1
      LoopType: 1
      RotateMode: 0
      EaseType: 0
      Ease: 25
      AnimationCurve:
        serializedVersion: 2
        m_Curve: []
        m_PreInfinity: 2
        m_PostInfinity: 2
        m_RotationOrder: 4
      StartDelay: 0
      Duration: 1
    Scale:
      AnimationType: 3
      Enabled: 1
      From: {x: 0.5, y: 0.5, z: 1}
      To: {x: 1, y: 1, z: 1}
      By: {x: 0, y: 0, z: 0}
      UseCustomFromAndTo: 0
      Vibrato: 10
      Elasticity: 1
      NumberOfLoops: -1
      LoopType: 1
      EaseType: 0
      Ease: 25
      AnimationCurve:
        serializedVersion: 2
        m_Curve: []
        m_PreInfinity: 2
        m_PostInfinity: 2
        m_RotationOrder: 4
      StartDelay: 0
      Duration: 1
    Fade:
      AnimationType: 3
      Enabled: 0
      From: 0
      To: 1
      By: 0.5
      UseCustomFromAndTo: 0
      NumberOfLoops: -1
      LoopType: 1
      EaseType: 0
      Ease: 1
      AnimationCurve:
        serializedVersion: 2
        m_Curve: []
        m_PreInfinity: 2
        m_PostInfinity: 2
        m_RotationOrder: 4
      StartDelay: 0
      Duration: 0.4
  Category: Elastic
  Name: DeepScaleSlow
--- !u!114 &114692936293715548
MonoBehaviour:
  m_ObjectHideFlags: 0
  m_CorrespondingSourceObject: {fileID: 0}
  m_PrefabInternal: {fileID: 0}
  m_GameObject: {fileID: 0}
  m_Enabled: 1
  m_EditorHideFlags: 0
  m_Script: {fileID: 11500000, guid: fe5b16c60b843134eb75c4ba6a7b6f52, type: 3}
  m_Name: ElasticVerticalSlow
  m_EditorClassIdentifier: 
  Animation:
    AnimationType: 3
    Move:
      AnimationType: 3
      Enabled: 0
      From: {x: 0, y: 0, z: 0}
      To: {x: 0, y: 0, z: 0}
      By: {x: 0, y: 20, z: 0}
      UseCustomFromAndTo: 0
      Vibrato: 10
      Elasticity: 1
      NumberOfLoops: -1
      LoopType: 1
      Direction: 0
      CustomPosition: {x: 0, y: 0, z: 0}
      EaseType: 0
      Ease: 1
      AnimationCurve:
        serializedVersion: 2
        m_Curve: []
        m_PreInfinity: 2
        m_PostInfinity: 2
        m_RotationOrder: 4
      StartDelay: 0
      Duration: 1
    Rotate:
      AnimationType: 3
      Enabled: 0
      From: {x: 0, y: 0, z: 0}
      To: {x: 0, y: 0, z: 0}
      By: {x: 0, y: 0, z: 5}
      UseCustomFromAndTo: 0
      Vibrato: 10
      Elasticity: 1
      NumberOfLoops: -1
      LoopType: 1
      RotateMode: 0
      EaseType: 0
      Ease: 25
      AnimationCurve:
        serializedVersion: 2
        m_Curve: []
        m_PreInfinity: 2
        m_PostInfinity: 2
        m_RotationOrder: 4
      StartDelay: 0
      Duration: 1
    Scale:
      AnimationType: 3
      Enabled: 1
      From: {x: 1, y: 1, z: 1}
      To: {x: 1, y: 1.3, z: 1}
      By: {x: 0, y: 0, z: 0}
      UseCustomFromAndTo: 0
      Vibrato: 10
      Elasticity: 1
      NumberOfLoops: -1
      LoopType: 1
      EaseType: 0
      Ease: 31
      AnimationCurve:
        serializedVersion: 2
        m_Curve: []
        m_PreInfinity: 2
        m_PostInfinity: 2
        m_RotationOrder: 4
      StartDelay: 0
      Duration: 0.8
    Fade:
      AnimationType: 3
      Enabled: 0
      From: 0
      To: 1
      By: 0.5
      UseCustomFromAndTo: 0
      NumberOfLoops: -1
      LoopType: 1
      EaseType: 0
      Ease: 1
      AnimationCurve:
        serializedVersion: 2
        m_Curve: []
        m_PreInfinity: 2
        m_PostInfinity: 2
        m_RotationOrder: 4
      StartDelay: 0
      Duration: 0.4
  Category: Elastic
  Name: ElasticVerticalSlow
--- !u!114 &114694054115441218
MonoBehaviour:
  m_ObjectHideFlags: 0
  m_CorrespondingSourceObject: {fileID: 0}
  m_PrefabInternal: {fileID: 0}
  m_GameObject: {fileID: 0}
  m_Enabled: 1
  m_EditorHideFlags: 0
  m_Script: {fileID: 11500000, guid: fe5b16c60b843134eb75c4ba6a7b6f52, type: 3}
  m_Name: StretchAndShrinkHorizontalNormal
  m_EditorClassIdentifier: 
  Animation:
    AnimationType: 3
    Move:
      AnimationType: 3
      Enabled: 0
      From: {x: 0, y: 0, z: 0}
      To: {x: 0, y: 0, z: 0}
      By: {x: 0, y: 20, z: 0}
      UseCustomFromAndTo: 0
      Vibrato: 10
      Elasticity: 1
      NumberOfLoops: -1
      LoopType: 1
      Direction: 0
      CustomPosition: {x: 0, y: 0, z: 0}
      EaseType: 0
      Ease: 1
      AnimationCurve:
        serializedVersion: 2
        m_Curve: []
        m_PreInfinity: 2
        m_PostInfinity: 2
        m_RotationOrder: 4
      StartDelay: 0
      Duration: 1
    Rotate:
      AnimationType: 3
      Enabled: 0
      From: {x: 0, y: 0, z: 0}
      To: {x: 0, y: 0, z: 0}
      By: {x: 0, y: 0, z: 5}
      UseCustomFromAndTo: 0
      Vibrato: 10
      Elasticity: 1
      NumberOfLoops: -1
      LoopType: 1
      RotateMode: 0
      EaseType: 0
      Ease: 25
      AnimationCurve:
        serializedVersion: 2
        m_Curve: []
        m_PreInfinity: 2
        m_PostInfinity: 2
        m_RotationOrder: 4
      StartDelay: 0
      Duration: 1
    Scale:
      AnimationType: 3
      Enabled: 1
      From: {x: 1, y: 1, z: 1}
      To: {x: 1.3, y: 0.5, z: 1}
      By: {x: 0, y: 0, z: 0}
      UseCustomFromAndTo: 0
      Vibrato: 10
      Elasticity: 1
      NumberOfLoops: -1
      LoopType: 1
      EaseType: 0
      Ease: 28
      AnimationCurve:
        serializedVersion: 2
        m_Curve: []
        m_PreInfinity: 2
        m_PostInfinity: 2
        m_RotationOrder: 4
      StartDelay: 0
      Duration: 0.4
    Fade:
      AnimationType: 3
      Enabled: 0
      From: 0
      To: 1
      By: 0.5
      UseCustomFromAndTo: 0
      NumberOfLoops: -1
      LoopType: 1
      EaseType: 0
      Ease: 1
      AnimationCurve:
        serializedVersion: 2
        m_Curve: []
        m_PreInfinity: 2
        m_PostInfinity: 2
        m_RotationOrder: 4
      StartDelay: 0
      Duration: 0.4
  Category: Elastic
  Name: StretchAndShrinkHorizontalNormal
--- !u!114 &114694420567950452
MonoBehaviour:
  m_ObjectHideFlags: 0
  m_CorrespondingSourceObject: {fileID: 0}
  m_PrefabInternal: {fileID: 0}
  m_GameObject: {fileID: 0}
  m_Enabled: 1
  m_EditorHideFlags: 0
  m_Script: {fileID: 11500000, guid: fe5b16c60b843134eb75c4ba6a7b6f52, type: 3}
  m_Name: PressedVerticalFast
  m_EditorClassIdentifier: 
  Animation:
    AnimationType: 3
    Move:
      AnimationType: 3
      Enabled: 0
      From: {x: 0, y: 0, z: 0}
      To: {x: 0, y: 0, z: 0}
      By: {x: 0, y: 30, z: 0}
      UseCustomFromAndTo: 0
      Vibrato: 10
      Elasticity: 1
      NumberOfLoops: -1
      LoopType: 1
      Direction: 0
      CustomPosition: {x: 0, y: 0, z: 0}
      EaseType: 0
      Ease: 25
      AnimationCurve:
        serializedVersion: 2
        m_Curve: []
        m_PreInfinity: 2
        m_PostInfinity: 2
        m_RotationOrder: 4
      StartDelay: 0
      Duration: 2
    Rotate:
      AnimationType: 3
      Enabled: 0
      From: {x: 0, y: 0, z: 0}
      To: {x: 0, y: 0, z: 0}
      By: {x: 0, y: 0, z: 5}
      UseCustomFromAndTo: 0
      Vibrato: 10
      Elasticity: 1
      NumberOfLoops: -1
      LoopType: 1
      RotateMode: 0
      EaseType: 0
      Ease: 25
      AnimationCurve:
        serializedVersion: 2
        m_Curve: []
        m_PreInfinity: 2
        m_PostInfinity: 2
        m_RotationOrder: 4
      StartDelay: 0
      Duration: 1
    Scale:
      AnimationType: 3
      Enabled: 1
      From: {x: 1, y: 1, z: 1}
      To: {x: 0.3, y: 1, z: 1}
      By: {x: 0, y: 0, z: 0}
      UseCustomFromAndTo: 0
      Vibrato: 10
      Elasticity: 1
      NumberOfLoops: -1
      LoopType: 1
      EaseType: 0
      Ease: 23
      AnimationCurve:
        serializedVersion: 2
        m_Curve: []
        m_PreInfinity: 2
        m_PostInfinity: 2
        m_RotationOrder: 4
      StartDelay: 0
      Duration: 0.4
    Fade:
      AnimationType: 3
      Enabled: 0
      From: 0
      To: 1
      By: 0.5
      UseCustomFromAndTo: 0
      NumberOfLoops: -1
      LoopType: 1
      EaseType: 0
      Ease: 1
      AnimationCurve:
        serializedVersion: 2
        m_Curve: []
        m_PreInfinity: 2
        m_PostInfinity: 2
        m_RotationOrder: 4
      StartDelay: 0
      Duration: 0.4
  Category: Elastic
  Name: PressedVerticalFast
--- !u!114 &114694692175778120
MonoBehaviour:
  m_ObjectHideFlags: 0
  m_CorrespondingSourceObject: {fileID: 0}
  m_PrefabInternal: {fileID: 0}
  m_GameObject: {fileID: 0}
  m_Enabled: 1
  m_EditorHideFlags: 0
  m_Script: {fileID: 11500000, guid: fe5b16c60b843134eb75c4ba6a7b6f52, type: 3}
  m_Name: StretchAndShrinkHorizontalFast
  m_EditorClassIdentifier: 
  Animation:
    AnimationType: 3
    Move:
      AnimationType: 3
      Enabled: 0
      From: {x: 0, y: 0, z: 0}
      To: {x: 0, y: 0, z: 0}
      By: {x: 0, y: 20, z: 0}
      UseCustomFromAndTo: 0
      Vibrato: 10
      Elasticity: 1
      NumberOfLoops: -1
      LoopType: 1
      Direction: 0
      CustomPosition: {x: 0, y: 0, z: 0}
      EaseType: 0
      Ease: 1
      AnimationCurve:
        serializedVersion: 2
        m_Curve: []
        m_PreInfinity: 2
        m_PostInfinity: 2
        m_RotationOrder: 4
      StartDelay: 0
      Duration: 1
    Rotate:
      AnimationType: 3
      Enabled: 0
      From: {x: 0, y: 0, z: 0}
      To: {x: 0, y: 0, z: 0}
      By: {x: 0, y: 0, z: 5}
      UseCustomFromAndTo: 0
      Vibrato: 10
      Elasticity: 1
      NumberOfLoops: -1
      LoopType: 1
      RotateMode: 0
      EaseType: 0
      Ease: 25
      AnimationCurve:
        serializedVersion: 2
        m_Curve: []
        m_PreInfinity: 2
        m_PostInfinity: 2
        m_RotationOrder: 4
      StartDelay: 0
      Duration: 1
    Scale:
      AnimationType: 3
      Enabled: 1
      From: {x: 1, y: 1, z: 1}
      To: {x: 1.3, y: 0.5, z: 1}
      By: {x: 0, y: 0, z: 0}
      UseCustomFromAndTo: 0
      Vibrato: 10
      Elasticity: 1
      NumberOfLoops: -1
      LoopType: 1
      EaseType: 0
      Ease: 28
      AnimationCurve:
        serializedVersion: 2
        m_Curve: []
        m_PreInfinity: 2
        m_PostInfinity: 2
        m_RotationOrder: 4
      StartDelay: 0
      Duration: 0.25
    Fade:
      AnimationType: 3
      Enabled: 0
      From: 0
      To: 1
      By: 0.5
      UseCustomFromAndTo: 0
      NumberOfLoops: -1
      LoopType: 1
      EaseType: 0
      Ease: 1
      AnimationCurve:
        serializedVersion: 2
        m_Curve: []
        m_PreInfinity: 2
        m_PostInfinity: 2
        m_RotationOrder: 4
      StartDelay: 0
      Duration: 0.4
  Category: Elastic
  Name: StretchAndShrinkHorizontalFast
--- !u!114 &114713666591418988
MonoBehaviour:
  m_ObjectHideFlags: 0
  m_CorrespondingSourceObject: {fileID: 0}
  m_PrefabInternal: {fileID: 0}
  m_GameObject: {fileID: 0}
  m_Enabled: 1
  m_EditorHideFlags: 0
  m_Script: {fileID: 11500000, guid: fe5b16c60b843134eb75c4ba6a7b6f52, type: 3}
  m_Name: DeepScaleFast
  m_EditorClassIdentifier: 
  Animation:
    AnimationType: 3
    Move:
      AnimationType: 3
      Enabled: 0
      From: {x: 0, y: 0, z: 0}
      To: {x: 0, y: 0, z: 0}
      By: {x: 0, y: 20, z: 0}
      UseCustomFromAndTo: 0
      Vibrato: 10
      Elasticity: 1
      NumberOfLoops: -1
      LoopType: 1
      Direction: 0
      CustomPosition: {x: 0, y: 0, z: 0}
      EaseType: 0
      Ease: 1
      AnimationCurve:
        serializedVersion: 2
        m_Curve: []
        m_PreInfinity: 2
        m_PostInfinity: 2
        m_RotationOrder: 4
      StartDelay: 0
      Duration: 1
    Rotate:
      AnimationType: 3
      Enabled: 0
      From: {x: 0, y: 0, z: 0}
      To: {x: 0, y: 0, z: 0}
      By: {x: 0, y: 0, z: 5}
      UseCustomFromAndTo: 0
      Vibrato: 10
      Elasticity: 1
      NumberOfLoops: -1
      LoopType: 1
      RotateMode: 0
      EaseType: 0
      Ease: 25
      AnimationCurve:
        serializedVersion: 2
        m_Curve: []
        m_PreInfinity: 2
        m_PostInfinity: 2
        m_RotationOrder: 4
      StartDelay: 0
      Duration: 1
    Scale:
      AnimationType: 3
      Enabled: 1
      From: {x: 0.5, y: 0.5, z: 1}
      To: {x: 1, y: 1, z: 1}
      By: {x: 0, y: 0, z: 0}
      UseCustomFromAndTo: 0
      Vibrato: 10
      Elasticity: 1
      NumberOfLoops: -1
      LoopType: 1
      EaseType: 0
      Ease: 25
      AnimationCurve:
        serializedVersion: 2
        m_Curve: []
        m_PreInfinity: 2
        m_PostInfinity: 2
        m_RotationOrder: 4
      StartDelay: 0
      Duration: 0.5
    Fade:
      AnimationType: 3
      Enabled: 0
      From: 0
      To: 1
      By: 0.5
      UseCustomFromAndTo: 0
      NumberOfLoops: -1
      LoopType: 1
      EaseType: 0
      Ease: 1
      AnimationCurve:
        serializedVersion: 2
        m_Curve: []
        m_PreInfinity: 2
        m_PostInfinity: 2
        m_RotationOrder: 4
      StartDelay: 0
      Duration: 0.4
  Category: Elastic
  Name: DeepScaleFast
--- !u!114 &114832502454664018
MonoBehaviour:
  m_ObjectHideFlags: 0
  m_CorrespondingSourceObject: {fileID: 0}
  m_PrefabInternal: {fileID: 0}
  m_GameObject: {fileID: 0}
  m_Enabled: 1
  m_EditorHideFlags: 0
  m_Script: {fileID: 11500000, guid: fe5b16c60b843134eb75c4ba6a7b6f52, type: 3}
  m_Name: ScaleSlow
  m_EditorClassIdentifier: 
  Animation:
    AnimationType: 3
    Move:
      AnimationType: 3
      Enabled: 0
      From: {x: 0, y: 0, z: 0}
      To: {x: 0, y: 0, z: 0}
      By: {x: 0, y: 20, z: 0}
      UseCustomFromAndTo: 0
      Vibrato: 10
      Elasticity: 1
      NumberOfLoops: -1
      LoopType: 1
      Direction: 0
      CustomPosition: {x: 0, y: 0, z: 0}
      EaseType: 0
      Ease: 1
      AnimationCurve:
        serializedVersion: 2
        m_Curve: []
        m_PreInfinity: 2
        m_PostInfinity: 2
        m_RotationOrder: 4
      StartDelay: 0
      Duration: 1
    Rotate:
      AnimationType: 3
      Enabled: 0
      From: {x: 0, y: 0, z: 0}
      To: {x: 0, y: 0, z: 0}
      By: {x: 0, y: 0, z: 5}
      UseCustomFromAndTo: 0
      Vibrato: 10
      Elasticity: 1
      NumberOfLoops: -1
      LoopType: 1
      RotateMode: 0
      EaseType: 0
      Ease: 25
      AnimationCurve:
        serializedVersion: 2
        m_Curve: []
        m_PreInfinity: 2
        m_PostInfinity: 2
        m_RotationOrder: 4
      StartDelay: 0
      Duration: 1
    Scale:
      AnimationType: 3
      Enabled: 1
      From: {x: 0.95, y: 0.95, z: 1}
      To: {x: 1.05, y: 1.05, z: 1}
      By: {x: 0, y: 0, z: 0}
      UseCustomFromAndTo: 0
      Vibrato: 10
      Elasticity: 1
      NumberOfLoops: -1
      LoopType: 1
      EaseType: 0
      Ease: 25
      AnimationCurve:
        serializedVersion: 2
        m_Curve: []
        m_PreInfinity: 2
        m_PostInfinity: 2
        m_RotationOrder: 4
      StartDelay: 0
      Duration: 1
    Fade:
      AnimationType: 3
      Enabled: 0
      From: 0
      To: 1
      By: 0.5
      UseCustomFromAndTo: 0
      NumberOfLoops: -1
      LoopType: 1
      EaseType: 0
      Ease: 1
      AnimationCurve:
        serializedVersion: 2
        m_Curve: []
        m_PreInfinity: 2
        m_PostInfinity: 2
        m_RotationOrder: 4
      StartDelay: 0
      Duration: 0.4
  Category: Elastic
  Name: ScaleSlow
--- !u!114 &114858875325330386
MonoBehaviour:
  m_ObjectHideFlags: 0
  m_CorrespondingSourceObject: {fileID: 0}
  m_PrefabInternal: {fileID: 0}
  m_GameObject: {fileID: 0}
  m_Enabled: 1
  m_EditorHideFlags: 0
  m_Script: {fileID: 11500000, guid: fe5b16c60b843134eb75c4ba6a7b6f52, type: 3}
  m_Name: ElasticHorizontalNormal
  m_EditorClassIdentifier: 
  Animation:
    AnimationType: 3
    Move:
      AnimationType: 3
      Enabled: 0
      From: {x: 0, y: 0, z: 0}
      To: {x: 0, y: 0, z: 0}
      By: {x: 0, y: 20, z: 0}
      UseCustomFromAndTo: 0
      Vibrato: 10
      Elasticity: 1
      NumberOfLoops: -1
      LoopType: 1
      Direction: 0
      CustomPosition: {x: 0, y: 0, z: 0}
      EaseType: 0
      Ease: 1
      AnimationCurve:
        serializedVersion: 2
        m_Curve: []
        m_PreInfinity: 2
        m_PostInfinity: 2
        m_RotationOrder: 4
      StartDelay: 0
      Duration: 1
    Rotate:
      AnimationType: 3
      Enabled: 0
      From: {x: 0, y: 0, z: 0}
      To: {x: 0, y: 0, z: 0}
      By: {x: 0, y: 0, z: 5}
      UseCustomFromAndTo: 0
      Vibrato: 10
      Elasticity: 1
      NumberOfLoops: -1
      LoopType: 1
      RotateMode: 0
      EaseType: 0
      Ease: 25
      AnimationCurve:
        serializedVersion: 2
        m_Curve: []
        m_PreInfinity: 2
        m_PostInfinity: 2
        m_RotationOrder: 4
      StartDelay: 0
      Duration: 1
    Scale:
      AnimationType: 3
      Enabled: 1
      From: {x: 1, y: 1, z: 1}
      To: {x: 1.3, y: 1, z: 1}
      By: {x: 0, y: 0, z: 0}
      UseCustomFromAndTo: 0
      Vibrato: 10
      Elasticity: 1
      NumberOfLoops: -1
      LoopType: 1
      EaseType: 0
      Ease: 31
      AnimationCurve:
        serializedVersion: 2
        m_Curve: []
        m_PreInfinity: 2
        m_PostInfinity: 2
        m_RotationOrder: 4
      StartDelay: 0
      Duration: 0.4
    Fade:
      AnimationType: 3
      Enabled: 0
      From: 0
      To: 1
      By: 0.5
      UseCustomFromAndTo: 0
      NumberOfLoops: -1
      LoopType: 1
      EaseType: 0
      Ease: 1
      AnimationCurve:
        serializedVersion: 2
        m_Curve: []
        m_PreInfinity: 2
        m_PostInfinity: 2
        m_RotationOrder: 4
      StartDelay: 0
      Duration: 0.4
  Category: Elastic
  Name: ElasticHorizontalNormal
--- !u!114 &114915178019232044
MonoBehaviour:
  m_ObjectHideFlags: 0
  m_CorrespondingSourceObject: {fileID: 0}
  m_PrefabInternal: {fileID: 0}
  m_GameObject: {fileID: 0}
  m_Enabled: 1
  m_EditorHideFlags: 0
  m_Script: {fileID: 11500000, guid: fe5b16c60b843134eb75c4ba6a7b6f52, type: 3}
  m_Name: Rotate10
  m_EditorClassIdentifier: 
  Animation:
    AnimationType: 3
    Move:
      AnimationType: 3
      Enabled: 1
      From: {x: 0, y: 0, z: 0}
      To: {x: 0, y: 0, z: 0}
      By: {x: 0, y: 10, z: 0}
      UseCustomFromAndTo: 0
      Vibrato: 10
      Elasticity: 1
      NumberOfLoops: -1
      LoopType: 1
      Direction: 0
      CustomPosition: {x: 0, y: 0, z: 0}
      EaseType: 0
      Ease: 25
      AnimationCurve:
        serializedVersion: 2
        m_Curve: []
        m_PreInfinity: 2
        m_PostInfinity: 2
        m_RotationOrder: 4
      StartDelay: 0
      Duration: 2
    Rotate:
      AnimationType: 3
      Enabled: 1
      From: {x: 0, y: 0, z: 0}
      To: {x: 0, y: 0, z: 0}
      By: {x: 0, y: 0, z: 10}
      UseCustomFromAndTo: 0
      Vibrato: 10
      Elasticity: 1
      NumberOfLoops: -1
      LoopType: 1
      RotateMode: 0
      EaseType: 0
      Ease: 25
      AnimationCurve:
        serializedVersion: 2
        m_Curve: []
        m_PreInfinity: 2
        m_PostInfinity: 2
        m_RotationOrder: 4
      StartDelay: 0
      Duration: 2
    Scale:
      AnimationType: 3
      Enabled: 1
      From: {x: 0.8, y: 0.8, z: 1}
      To: {x: 1.2, y: 1.2, z: 1}
      By: {x: 0, y: 0, z: 0}
      UseCustomFromAndTo: 0
      Vibrato: 10
      Elasticity: 1
      NumberOfLoops: -1
      LoopType: 1
      EaseType: 0
      Ease: 4
      AnimationCurve:
        serializedVersion: 2
        m_Curve: []
        m_PreInfinity: 2
        m_PostInfinity: 2
        m_RotationOrder: 4
      StartDelay: 0
      Duration: 0.25
    Fade:
      AnimationType: 3
      Enabled: 0
      From: 0
      To: 1
      By: 0.5
      UseCustomFromAndTo: 0
      NumberOfLoops: -1
      LoopType: 1
      EaseType: 0
      Ease: 1
      AnimationCurve:
        serializedVersion: 2
        m_Curve: []
        m_PreInfinity: 2
        m_PostInfinity: 2
        m_RotationOrder: 4
      StartDelay: 0
      Duration: 0.4
  Category: Elastic
  Name: Rotate10
--- !u!114 &114968104651517086
MonoBehaviour:
  m_ObjectHideFlags: 0
  m_CorrespondingSourceObject: {fileID: 0}
  m_PrefabInternal: {fileID: 0}
  m_GameObject: {fileID: 0}
  m_Enabled: 1
  m_EditorHideFlags: 0
  m_Script: {fileID: 11500000, guid: fe5b16c60b843134eb75c4ba6a7b6f52, type: 3}
  m_Name: ScaleFast
  m_EditorClassIdentifier: 
  Animation:
    AnimationType: 3
    Move:
      AnimationType: 3
      Enabled: 0
      From: {x: 0, y: 0, z: 0}
      To: {x: 0, y: 0, z: 0}
      By: {x: 0, y: 20, z: 0}
      UseCustomFromAndTo: 0
      Vibrato: 10
      Elasticity: 1
      NumberOfLoops: -1
      LoopType: 1
      Direction: 0
      CustomPosition: {x: 0, y: 0, z: 0}
      EaseType: 0
      Ease: 1
      AnimationCurve:
        serializedVersion: 2
        m_Curve: []
        m_PreInfinity: 2
        m_PostInfinity: 2
        m_RotationOrder: 4
      StartDelay: 0
      Duration: 1
    Rotate:
      AnimationType: 3
      Enabled: 0
      From: {x: 0, y: 0, z: 0}
      To: {x: 0, y: 0, z: 0}
      By: {x: 0, y: 0, z: 5}
      UseCustomFromAndTo: 0
      Vibrato: 10
      Elasticity: 1
      NumberOfLoops: -1
      LoopType: 1
      RotateMode: 0
      EaseType: 0
      Ease: 25
      AnimationCurve:
        serializedVersion: 2
        m_Curve: []
        m_PreInfinity: 2
        m_PostInfinity: 2
        m_RotationOrder: 4
      StartDelay: 0
      Duration: 1
    Scale:
      AnimationType: 3
      Enabled: 1
      From: {x: 0.95, y: 0.95, z: 1}
      To: {x: 1.05, y: 1.05, z: 1}
      By: {x: 0, y: 0, z: 0}
      UseCustomFromAndTo: 0
      Vibrato: 10
      Elasticity: 1
      NumberOfLoops: -1
      LoopType: 1
      EaseType: 0
      Ease: 25
      AnimationCurve:
        serializedVersion: 2
        m_Curve: []
        m_PreInfinity: 2
        m_PostInfinity: 2
        m_RotationOrder: 4
      StartDelay: 0
      Duration: 0.5
    Fade:
      AnimationType: 3
      Enabled: 0
      From: 0
      To: 1
      By: 0.5
      UseCustomFromAndTo: 0
      NumberOfLoops: -1
      LoopType: 1
      EaseType: 0
      Ease: 1
      AnimationCurve:
        serializedVersion: 2
        m_Curve: []
        m_PreInfinity: 2
        m_PostInfinity: 2
        m_RotationOrder: 4
      StartDelay: 0
      Duration: 0.4
  Category: Elastic
  Name: ScaleFast
