%YAML 1.1
%TAG !u! tag:unity3d.com,2011:
--- !u!114 &11400000
MonoBehaviour:
  m_ObjectHideFlags: 0
  m_CorrespondingSourceObject: {fileID: 0}
  m_PrefabInternal: {fileID: 0}
  m_GameObject: {fileID: 0}
  m_Enabled: 1
  m_EditorHideFlags: 0
  m_Script: {fileID: 11500000, guid: 42dff178cdcfb1740a46c868a9902c1e, type: 3}
  m_Name: Flip
  m_EditorClassIdentifier: 
  AnimationNames:
  - FlipAndMoveToBottom
  - FlipAndMoveToLeft
  - FlipAndMoveToRight
  - FlipAndMoveToTop
  - FlipAndResizeBottom
  - FlipAndResizeLeft
  - FlipAndResizeRight
  - FlipAndResizeTop
  - ThrowToBottom
  - ThrowToLeft
  - ThrowToRight
  - ThrowToTop
  Database:
  - {fileID: 114306162742288592}
  - {fileID: 114861571424502756}
  - {fileID: 114376045074847710}
  - {fileID: 114181084008945164}
  - {fileID: 114492962075670102}
  - {fileID: 114953950591589364}
  - {fileID: 114407861952134616}
  - {fileID: 114523997134475066}
  - {fileID: 114158077486100108}
  - {fileID: 114550289055443928}
  - {fileID: 114044165755302314}
  - {fileID: 114966422155997356}
  DatabaseName: Flip
  DataType: 2
--- !u!114 &114044165755302314
MonoBehaviour:
  m_ObjectHideFlags: 0
  m_CorrespondingSourceObject: {fileID: 0}
  m_PrefabInternal: {fileID: 0}
  m_GameObject: {fileID: 0}
  m_Enabled: 1
  m_EditorHideFlags: 0
  m_Script: {fileID: 11500000, guid: fe5b16c60b843134eb75c4ba6a7b6f52, type: 3}
  m_Name: ThrowToRight
  m_EditorClassIdentifier: 
  Animation:
    AnimationType: 2
    Move:
      AnimationType: 2
      Enabled: 1
      From: {x: 0, y: 0, z: 0}
      To: {x: 0, y: 0, z: 0}
      By: {x: 0, y: 0, z: 0}
      UseCustomFromAndTo: 0
      Vibrato: 10
      Elasticity: 1
      NumberOfLoops: -1
      LoopType: 1
      Direction: 1
      CustomPosition: {x: 0, y: 0, z: 0}
      EaseType: 0
      Ease: 3
      AnimationCurve:
        serializedVersion: 2
        m_Curve:
        - serializedVersion: 3
          time: 0
          value: 0
          inSlope: 1
          outSlope: 1
          tangentMode: 0
          weightedMode: 0
          inWeight: 0.33333334
          outWeight: 0.33333334
        - serializedVersion: 3
          time: 0.17082776
          value: 1.2522181
          inSlope: 1.0000169
          outSlope: 1.0000169
          tangentMode: 0
          weightedMode: 0
          inWeight: 0.33333334
          outWeight: 0.33333334
        - serializedVersion: 3
          time: 0.35035205
          value: -0.018237352
          inSlope: 0.9998679
          outSlope: 0.9998679
          tangentMode: 0
          weightedMode: 0
          inWeight: 0.33333334
          outWeight: 0.33333334
        - serializedVersion: 3
          time: 0.6079814
          value: 0.7846122
          inSlope: 1.8180907
          outSlope: 1.8180907
          tangentMode: 0
          weightedMode: 0
          inWeight: 0.33333334
          outWeight: 0.33333334
        - serializedVersion: 3
          time: 0.8189187
          value: 0.18767625
          inSlope: 1.6653538
          outSlope: 1.6653538
          tangentMode: 0
          weightedMode: 0
          inWeight: 0.33333334
          outWeight: 0.33333334
        - serializedVersion: 3
          time: 1
          value: 1
          inSlope: 1
          outSlope: 1
          tangentMode: 0
          weightedMode: 0
          inWeight: 0.33333334
          outWeight: 0.33333334
        m_PreInfinity: 2
        m_PostInfinity: 2
        m_RotationOrder: 4
      StartDelay: 0.2
      Duration: 0.2
    Rotate:
      AnimationType: 2
      Enabled: 1
      From: {x: 0, y: 0, z: 0}
      To: {x: 180, y: -180, z: 0}
      By: {x: 0, y: 0, z: 0}
      UseCustomFromAndTo: 0
      Vibrato: 10
      Elasticity: 1
      NumberOfLoops: -1
      LoopType: 1
      RotateMode: 0
      EaseType: 0
      Ease: 34
      AnimationCurve:
        serializedVersion: 2
        m_Curve: []
        m_PreInfinity: 2
        m_PostInfinity: 2
        m_RotationOrder: 4
      StartDelay: 0.1
      Duration: 0.2
    Scale:
      AnimationType: 2
      Enabled: 1
      From: {x: 0, y: 0, z: 0}
      To: {x: 1.1, y: 1.1, z: 1}
      By: {x: 0, y: 0, z: 0}
      UseCustomFromAndTo: 0
      Vibrato: 10
      Elasticity: 1
      NumberOfLoops: -1
      LoopType: 1
      EaseType: 0
      Ease: 6
      AnimationCurve:
        serializedVersion: 2
        m_Curve:
        - serializedVersion: 3
          time: 0.0011500716
          value: 0
          inSlope: 1
          outSlope: 1
          tangentMode: 0
          weightedMode: 0
          inWeight: 0.33333334
          outWeight: 0.33333334
        - serializedVersion: 3
          time: 0.18183987
          value: 0.9963956
          inSlope: 1.0000169
          outSlope: 1.0000169
          tangentMode: 0
          weightedMode: 0
          inWeight: 0.33333334
          outWeight: 0.33333334
        - serializedVersion: 3
          time: 0.30405074
          value: 0.27968055
          inSlope: -0.019073486
          outSlope: -0.019073486
          tangentMode: 0
          weightedMode: 0
          inWeight: 0.33333334
          outWeight: 0.33333334
        - serializedVersion: 3
          time: 0.48154142
          value: 0.7481303
          inSlope: 0.9252131
          outSlope: 0.9252131
          tangentMode: 0
          weightedMode: 0
          inWeight: 0.33333334
          outWeight: 0.33333334
        - serializedVersion: 3
          time: 0.5789693
          value: 0.38414803
          inSlope: 0.4518032
          outSlope: 0.4518032
          tangentMode: 0
          weightedMode: 0
          inWeight: 0.33333334
          outWeight: 0.33333334
        - serializedVersion: 3
          time: 0.72302365
          value: 0.6539519
          inSlope: 1.6307831
          outSlope: 1.6307831
          tangentMode: 0
          weightedMode: 0
          inWeight: 0.33333334
          outWeight: 0.33333334
        - serializedVersion: 3
          time: 0.80114186
          value: 0.5411123
          inSlope: 1.3419986
          outSlope: 1.3419986
          tangentMode: 0
          weightedMode: 0
          inWeight: 0.33333334
          outWeight: 0.33333334
        - serializedVersion: 3
          time: 1.0011501
          value: 1
          inSlope: 1
          outSlope: 1
          tangentMode: 0
          weightedMode: 0
          inWeight: 0.33333334
          outWeight: 0.33333334
        m_PreInfinity: 2
        m_PostInfinity: 2
        m_RotationOrder: 4
      StartDelay: 0
      Duration: 0.2
    Fade:
      AnimationType: 2
      Enabled: 1
      From: 0
      To: 0
      By: 0.5
      UseCustomFromAndTo: 0
      NumberOfLoops: -1
      LoopType: 1
      EaseType: 0
      Ease: 1
      AnimationCurve:
        serializedVersion: 2
        m_Curve: []
        m_PreInfinity: 2
        m_PostInfinity: 2
        m_RotationOrder: 4
      StartDelay: 0.2
      Duration: 0.2
  Category: Flip
  Name: ThrowToRight
--- !u!114 &114158077486100108
MonoBehaviour:
  m_ObjectHideFlags: 0
  m_CorrespondingSourceObject: {fileID: 0}
  m_PrefabInternal: {fileID: 0}
  m_GameObject: {fileID: 0}
  m_Enabled: 1
  m_EditorHideFlags: 0
  m_Script: {fileID: 11500000, guid: fe5b16c60b843134eb75c4ba6a7b6f52, type: 3}
  m_Name: ThrowToBottom
  m_EditorClassIdentifier: 
  Animation:
    AnimationType: 2
    Move:
      AnimationType: 2
      Enabled: 1
      From: {x: 0, y: 0, z: 0}
      To: {x: 0, y: 0, z: 0}
      By: {x: 0, y: 0, z: 0}
      UseCustomFromAndTo: 0
      Vibrato: 10
      Elasticity: 1
      NumberOfLoops: -1
      LoopType: 1
      Direction: 3
      CustomPosition: {x: 0, y: 0, z: 0}
      EaseType: 0
      Ease: 3
      AnimationCurve:
        serializedVersion: 2
        m_Curve:
        - serializedVersion: 3
          time: 0
          value: 0
          inSlope: 1
          outSlope: 1
          tangentMode: 0
          weightedMode: 0
          inWeight: 0.33333334
          outWeight: 0.33333334
        - serializedVersion: 3
          time: 0.17082776
          value: 1.2522181
          inSlope: 1.0000169
          outSlope: 1.0000169
          tangentMode: 0
          weightedMode: 0
          inWeight: 0.33333334
          outWeight: 0.33333334
        - serializedVersion: 3
          time: 0.35035205
          value: -0.018237352
          inSlope: 0.9998679
          outSlope: 0.9998679
          tangentMode: 0
          weightedMode: 0
          inWeight: 0.33333334
          outWeight: 0.33333334
        - serializedVersion: 3
          time: 0.6079814
          value: 0.7846122
          inSlope: 1.8180907
          outSlope: 1.8180907
          tangentMode: 0
          weightedMode: 0
          inWeight: 0.33333334
          outWeight: 0.33333334
        - serializedVersion: 3
          time: 0.8189187
          value: 0.18767625
          inSlope: 1.6653538
          outSlope: 1.6653538
          tangentMode: 0
          weightedMode: 0
          inWeight: 0.33333334
          outWeight: 0.33333334
        - serializedVersion: 3
          time: 1
          value: 1
          inSlope: 1
          outSlope: 1
          tangentMode: 0
          weightedMode: 0
          inWeight: 0.33333334
          outWeight: 0.33333334
        m_PreInfinity: 2
        m_PostInfinity: 2
        m_RotationOrder: 4
      StartDelay: 0.2
      Duration: 0.2
    Rotate:
      AnimationType: 2
      Enabled: 1
      From: {x: 0, y: 0, z: 0}
      To: {x: 180, y: 180, z: 0}
      By: {x: 0, y: 0, z: 0}
      UseCustomFromAndTo: 0
      Vibrato: 10
      Elasticity: 1
      NumberOfLoops: -1
      LoopType: 1
      RotateMode: 0
      EaseType: 0
      Ease: 34
      AnimationCurve:
        serializedVersion: 2
        m_Curve: []
        m_PreInfinity: 2
        m_PostInfinity: 2
        m_RotationOrder: 4
      StartDelay: 0.1
      Duration: 0.2
    Scale:
      AnimationType: 2
      Enabled: 1
      From: {x: 0, y: 0, z: 0}
      To: {x: 1.1, y: 1.1, z: 1}
      By: {x: 0, y: 0, z: 0}
      UseCustomFromAndTo: 0
      Vibrato: 10
      Elasticity: 1
      NumberOfLoops: -1
      LoopType: 1
      EaseType: 0
      Ease: 6
      AnimationCurve:
        serializedVersion: 2
        m_Curve:
        - serializedVersion: 3
          time: 0.0011500716
          value: 0
          inSlope: 1
          outSlope: 1
          tangentMode: 0
          weightedMode: 0
          inWeight: 0.33333334
          outWeight: 0.33333334
        - serializedVersion: 3
          time: 0.18183987
          value: 0.9963956
          inSlope: 1.0000169
          outSlope: 1.0000169
          tangentMode: 0
          weightedMode: 0
          inWeight: 0.33333334
          outWeight: 0.33333334
        - serializedVersion: 3
          time: 0.30405074
          value: 0.27968055
          inSlope: -0.019073486
          outSlope: -0.019073486
          tangentMode: 0
          weightedMode: 0
          inWeight: 0.33333334
          outWeight: 0.33333334
        - serializedVersion: 3
          time: 0.48154142
          value: 0.7481303
          inSlope: 0.9252131
          outSlope: 0.9252131
          tangentMode: 0
          weightedMode: 0
          inWeight: 0.33333334
          outWeight: 0.33333334
        - serializedVersion: 3
          time: 0.5789693
          value: 0.38414803
          inSlope: 0.4518032
          outSlope: 0.4518032
          tangentMode: 0
          weightedMode: 0
          inWeight: 0.33333334
          outWeight: 0.33333334
        - serializedVersion: 3
          time: 0.72302365
          value: 0.6539519
          inSlope: 1.6307831
          outSlope: 1.6307831
          tangentMode: 0
          weightedMode: 0
          inWeight: 0.33333334
          outWeight: 0.33333334
        - serializedVersion: 3
          time: 0.80114186
          value: 0.5411123
          inSlope: 1.3419986
          outSlope: 1.3419986
          tangentMode: 0
          weightedMode: 0
          inWeight: 0.33333334
          outWeight: 0.33333334
        - serializedVersion: 3
          time: 1.0011501
          value: 1
          inSlope: 1
          outSlope: 1
          tangentMode: 0
          weightedMode: 0
          inWeight: 0.33333334
          outWeight: 0.33333334
        m_PreInfinity: 2
        m_PostInfinity: 2
        m_RotationOrder: 4
      StartDelay: 0
      Duration: 0.2
    Fade:
      AnimationType: 2
      Enabled: 1
      From: 0
      To: 0
      By: 0.5
      UseCustomFromAndTo: 0
      NumberOfLoops: -1
      LoopType: 1
      EaseType: 0
      Ease: 1
      AnimationCurve:
        serializedVersion: 2
        m_Curve: []
        m_PreInfinity: 2
        m_PostInfinity: 2
        m_RotationOrder: 4
      StartDelay: 0.2
      Duration: 0.2
  Category: Flip
  Name: ThrowToBottom
--- !u!114 &114181084008945164
MonoBehaviour:
  m_ObjectHideFlags: 0
  m_CorrespondingSourceObject: {fileID: 0}
  m_PrefabInternal: {fileID: 0}
  m_GameObject: {fileID: 0}
  m_Enabled: 1
  m_EditorHideFlags: 0
  m_Script: {fileID: 11500000, guid: fe5b16c60b843134eb75c4ba6a7b6f52, type: 3}
  m_Name: FlipAndMoveToTop
  m_EditorClassIdentifier: 
  Animation:
    AnimationType: 2
    Move:
      AnimationType: 2
      Enabled: 1
      From: {x: 0, y: 0, z: 0}
      To: {x: 0, y: 0, z: 0}
      By: {x: 0, y: 0, z: 0}
      UseCustomFromAndTo: 0
      Vibrato: 10
      Elasticity: 1
      NumberOfLoops: -1
      LoopType: 1
      Direction: 2
      CustomPosition: {x: 0, y: 0, z: 0}
      EaseType: 0
      Ease: 3
      AnimationCurve:
        serializedVersion: 2
        m_Curve:
        - serializedVersion: 3
          time: 0
          value: 0
          inSlope: 1
          outSlope: 1
          tangentMode: 0
          weightedMode: 0
          inWeight: 0.33333334
          outWeight: 0.33333334
        - serializedVersion: 3
          time: 0.17082776
          value: 1.2522181
          inSlope: 1.0000169
          outSlope: 1.0000169
          tangentMode: 0
          weightedMode: 0
          inWeight: 0.33333334
          outWeight: 0.33333334
        - serializedVersion: 3
          time: 0.35035205
          value: -0.018237352
          inSlope: 0.9998679
          outSlope: 0.9998679
          tangentMode: 0
          weightedMode: 0
          inWeight: 0.33333334
          outWeight: 0.33333334
        - serializedVersion: 3
          time: 0.6079814
          value: 0.7846122
          inSlope: 1.8180907
          outSlope: 1.8180907
          tangentMode: 0
          weightedMode: 0
          inWeight: 0.33333334
          outWeight: 0.33333334
        - serializedVersion: 3
          time: 0.8189187
          value: 0.18767625
          inSlope: 1.6653538
          outSlope: 1.6653538
          tangentMode: 0
          weightedMode: 0
          inWeight: 0.33333334
          outWeight: 0.33333334
        - serializedVersion: 3
          time: 1
          value: 1
          inSlope: 1
          outSlope: 1
          tangentMode: 0
          weightedMode: 0
          inWeight: 0.33333334
          outWeight: 0.33333334
        m_PreInfinity: 2
        m_PostInfinity: 2
        m_RotationOrder: 4
      StartDelay: 0.2
      Duration: 0.2
    Rotate:
      AnimationType: 2
      Enabled: 1
      From: {x: 0, y: 0, z: 0}
      To: {x: 90, y: 0, z: 0}
      By: {x: 0, y: 0, z: 0}
      UseCustomFromAndTo: 0
      Vibrato: 10
      Elasticity: 1
      NumberOfLoops: -1
      LoopType: 1
      RotateMode: 0
      EaseType: 0
      Ease: 34
      AnimationCurve:
        serializedVersion: 2
        m_Curve: []
        m_PreInfinity: 2
        m_PostInfinity: 2
        m_RotationOrder: 4
      StartDelay: 0
      Duration: 0.3
    Scale:
      AnimationType: 2
      Enabled: 0
      From: {x: 0, y: 0, z: 0}
      To: {x: 0, y: 0.5, z: 1}
      By: {x: 0, y: 0, z: 0}
      UseCustomFromAndTo: 0
      Vibrato: 10
      Elasticity: 1
      NumberOfLoops: -1
      LoopType: 1
      EaseType: 0
      Ease: 5
      AnimationCurve:
        serializedVersion: 2
        m_Curve:
        - serializedVersion: 3
          time: 0.0011500716
          value: 0
          inSlope: 1
          outSlope: 1
          tangentMode: 0
          weightedMode: 0
          inWeight: 0.33333334
          outWeight: 0.33333334
        - serializedVersion: 3
          time: 0.18183987
          value: 0.9963956
          inSlope: 1.0000169
          outSlope: 1.0000169
          tangentMode: 0
          weightedMode: 0
          inWeight: 0.33333334
          outWeight: 0.33333334
        - serializedVersion: 3
          time: 0.30405074
          value: 0.27968055
          inSlope: -0.019073486
          outSlope: -0.019073486
          tangentMode: 0
          weightedMode: 0
          inWeight: 0.33333334
          outWeight: 0.33333334
        - serializedVersion: 3
          time: 0.48154142
          value: 0.7481303
          inSlope: 0.9252131
          outSlope: 0.9252131
          tangentMode: 0
          weightedMode: 0
          inWeight: 0.33333334
          outWeight: 0.33333334
        - serializedVersion: 3
          time: 0.5789693
          value: 0.38414803
          inSlope: 0.4518032
          outSlope: 0.4518032
          tangentMode: 0
          weightedMode: 0
          inWeight: 0.33333334
          outWeight: 0.33333334
        - serializedVersion: 3
          time: 0.72302365
          value: 0.6539519
          inSlope: 1.6307831
          outSlope: 1.6307831
          tangentMode: 0
          weightedMode: 0
          inWeight: 0.33333334
          outWeight: 0.33333334
        - serializedVersion: 3
          time: 0.80114186
          value: 0.5411123
          inSlope: 1.3419986
          outSlope: 1.3419986
          tangentMode: 0
          weightedMode: 0
          inWeight: 0.33333334
          outWeight: 0.33333334
        - serializedVersion: 3
          time: 1.0011501
          value: 1
          inSlope: 1
          outSlope: 1
          tangentMode: 0
          weightedMode: 0
          inWeight: 0.33333334
          outWeight: 0.33333334
        m_PreInfinity: 2
        m_PostInfinity: 2
        m_RotationOrder: 4
      StartDelay: 0
      Duration: 0.4
    Fade:
      AnimationType: 2
      Enabled: 1
      From: 0
      To: 0
      By: 0.5
      UseCustomFromAndTo: 0
      NumberOfLoops: -1
      LoopType: 1
      EaseType: 0
      Ease: 1
      AnimationCurve:
        serializedVersion: 2
        m_Curve: []
        m_PreInfinity: 2
        m_PostInfinity: 2
        m_RotationOrder: 4
      StartDelay: 0.2
      Duration: 0.2
  Category: Flip
  Name: FlipAndMoveToTop
--- !u!114 &114306162742288592
MonoBehaviour:
  m_ObjectHideFlags: 0
  m_CorrespondingSourceObject: {fileID: 0}
  m_PrefabInternal: {fileID: 0}
  m_GameObject: {fileID: 0}
  m_Enabled: 1
  m_EditorHideFlags: 0
  m_Script: {fileID: 11500000, guid: fe5b16c60b843134eb75c4ba6a7b6f52, type: 3}
  m_Name: FlipAndMoveToBottom
  m_EditorClassIdentifier: 
  Animation:
    AnimationType: 2
    Move:
      AnimationType: 2
      Enabled: 1
      From: {x: 0, y: 0, z: 0}
      To: {x: 0, y: 0, z: 0}
      By: {x: 0, y: 0, z: 0}
      UseCustomFromAndTo: 0
      Vibrato: 10
      Elasticity: 1
      NumberOfLoops: -1
      LoopType: 1
      Direction: 3
      CustomPosition: {x: 0, y: 0, z: 0}
      EaseType: 0
      Ease: 3
      AnimationCurve:
        serializedVersion: 2
        m_Curve:
        - serializedVersion: 3
          time: 0
          value: 0
          inSlope: 1
          outSlope: 1
          tangentMode: 0
          weightedMode: 0
          inWeight: 0.33333334
          outWeight: 0.33333334
        - serializedVersion: 3
          time: 0.17082776
          value: 1.2522181
          inSlope: 1.0000169
          outSlope: 1.0000169
          tangentMode: 0
          weightedMode: 0
          inWeight: 0.33333334
          outWeight: 0.33333334
        - serializedVersion: 3
          time: 0.35035205
          value: -0.018237352
          inSlope: 0.9998679
          outSlope: 0.9998679
          tangentMode: 0
          weightedMode: 0
          inWeight: 0.33333334
          outWeight: 0.33333334
        - serializedVersion: 3
          time: 0.6079814
          value: 0.7846122
          inSlope: 1.8180907
          outSlope: 1.8180907
          tangentMode: 0
          weightedMode: 0
          inWeight: 0.33333334
          outWeight: 0.33333334
        - serializedVersion: 3
          time: 0.8189187
          value: 0.18767625
          inSlope: 1.6653538
          outSlope: 1.6653538
          tangentMode: 0
          weightedMode: 0
          inWeight: 0.33333334
          outWeight: 0.33333334
        - serializedVersion: 3
          time: 1
          value: 1
          inSlope: 1
          outSlope: 1
          tangentMode: 0
          weightedMode: 0
          inWeight: 0.33333334
          outWeight: 0.33333334
        m_PreInfinity: 2
        m_PostInfinity: 2
        m_RotationOrder: 4
      StartDelay: 0.2
      Duration: 0.2
    Rotate:
      AnimationType: 2
      Enabled: 1
      From: {x: 0, y: 0, z: 0}
      To: {x: 90, y: 0, z: 0}
      By: {x: 0, y: 0, z: 0}
      UseCustomFromAndTo: 0
      Vibrato: 10
      Elasticity: 1
      NumberOfLoops: -1
      LoopType: 1
      RotateMode: 0
      EaseType: 0
      Ease: 34
      AnimationCurve:
        serializedVersion: 2
        m_Curve: []
        m_PreInfinity: 2
        m_PostInfinity: 2
        m_RotationOrder: 4
      StartDelay: 0
      Duration: 0.3
    Scale:
      AnimationType: 2
      Enabled: 0
      From: {x: 0, y: 0, z: 0}
      To: {x: 0, y: 0.5, z: 1}
      By: {x: 0, y: 0, z: 0}
      UseCustomFromAndTo: 0
      Vibrato: 10
      Elasticity: 1
      NumberOfLoops: -1
      LoopType: 1
      EaseType: 0
      Ease: 5
      AnimationCurve:
        serializedVersion: 2
        m_Curve:
        - serializedVersion: 3
          time: 0.0011500716
          value: 0
          inSlope: 1
          outSlope: 1
          tangentMode: 0
          weightedMode: 0
          inWeight: 0.33333334
          outWeight: 0.33333334
        - serializedVersion: 3
          time: 0.18183987
          value: 0.9963956
          inSlope: 1.0000169
          outSlope: 1.0000169
          tangentMode: 0
          weightedMode: 0
          inWeight: 0.33333334
          outWeight: 0.33333334
        - serializedVersion: 3
          time: 0.30405074
          value: 0.27968055
          inSlope: -0.019073486
          outSlope: -0.019073486
          tangentMode: 0
          weightedMode: 0
          inWeight: 0.33333334
          outWeight: 0.33333334
        - serializedVersion: 3
          time: 0.48154142
          value: 0.7481303
          inSlope: 0.9252131
          outSlope: 0.9252131
          tangentMode: 0
          weightedMode: 0
          inWeight: 0.33333334
          outWeight: 0.33333334
        - serializedVersion: 3
          time: 0.5789693
          value: 0.38414803
          inSlope: 0.4518032
          outSlope: 0.4518032
          tangentMode: 0
          weightedMode: 0
          inWeight: 0.33333334
          outWeight: 0.33333334
        - serializedVersion: 3
          time: 0.72302365
          value: 0.6539519
          inSlope: 1.6307831
          outSlope: 1.6307831
          tangentMode: 0
          weightedMode: 0
          inWeight: 0.33333334
          outWeight: 0.33333334
        - serializedVersion: 3
          time: 0.80114186
          value: 0.5411123
          inSlope: 1.3419986
          outSlope: 1.3419986
          tangentMode: 0
          weightedMode: 0
          inWeight: 0.33333334
          outWeight: 0.33333334
        - serializedVersion: 3
          time: 1.0011501
          value: 1
          inSlope: 1
          outSlope: 1
          tangentMode: 0
          weightedMode: 0
          inWeight: 0.33333334
          outWeight: 0.33333334
        m_PreInfinity: 2
        m_PostInfinity: 2
        m_RotationOrder: 4
      StartDelay: 0
      Duration: 0.4
    Fade:
      AnimationType: 2
      Enabled: 1
      From: 0
      To: 0
      By: 0.5
      UseCustomFromAndTo: 0
      NumberOfLoops: -1
      LoopType: 1
      EaseType: 0
      Ease: 1
      AnimationCurve:
        serializedVersion: 2
        m_Curve: []
        m_PreInfinity: 2
        m_PostInfinity: 2
        m_RotationOrder: 4
      StartDelay: 0.2
      Duration: 0.2
  Category: Flip
  Name: FlipAndMoveToBottom
--- !u!114 &114376045074847710
MonoBehaviour:
  m_ObjectHideFlags: 0
  m_CorrespondingSourceObject: {fileID: 0}
  m_PrefabInternal: {fileID: 0}
  m_GameObject: {fileID: 0}
  m_Enabled: 1
  m_EditorHideFlags: 0
  m_Script: {fileID: 11500000, guid: fe5b16c60b843134eb75c4ba6a7b6f52, type: 3}
  m_Name: FlipAndMoveToRight
  m_EditorClassIdentifier: 
  Animation:
    AnimationType: 2
    Move:
      AnimationType: 2
      Enabled: 1
      From: {x: 0, y: 0, z: 0}
      To: {x: 0, y: 0, z: 0}
      By: {x: 0, y: 0, z: 0}
      UseCustomFromAndTo: 0
      Vibrato: 10
      Elasticity: 1
      NumberOfLoops: -1
      LoopType: 1
      Direction: 1
      CustomPosition: {x: 0, y: 0, z: 0}
      EaseType: 0
      Ease: 3
      AnimationCurve:
        serializedVersion: 2
        m_Curve:
        - serializedVersion: 3
          time: 0
          value: 0
          inSlope: 1
          outSlope: 1
          tangentMode: 0
          weightedMode: 0
          inWeight: 0.33333334
          outWeight: 0.33333334
        - serializedVersion: 3
          time: 0.17082776
          value: 1.2522181
          inSlope: 1.0000169
          outSlope: 1.0000169
          tangentMode: 0
          weightedMode: 0
          inWeight: 0.33333334
          outWeight: 0.33333334
        - serializedVersion: 3
          time: 0.35035205
          value: -0.018237352
          inSlope: 0.9998679
          outSlope: 0.9998679
          tangentMode: 0
          weightedMode: 0
          inWeight: 0.33333334
          outWeight: 0.33333334
        - serializedVersion: 3
          time: 0.6079814
          value: 0.7846122
          inSlope: 1.8180907
          outSlope: 1.8180907
          tangentMode: 0
          weightedMode: 0
          inWeight: 0.33333334
          outWeight: 0.33333334
        - serializedVersion: 3
          time: 0.8189187
          value: 0.18767625
          inSlope: 1.6653538
          outSlope: 1.6653538
          tangentMode: 0
          weightedMode: 0
          inWeight: 0.33333334
          outWeight: 0.33333334
        - serializedVersion: 3
          time: 1
          value: 1
          inSlope: 1
          outSlope: 1
          tangentMode: 0
          weightedMode: 0
          inWeight: 0.33333334
          outWeight: 0.33333334
        m_PreInfinity: 2
        m_PostInfinity: 2
        m_RotationOrder: 4
      StartDelay: 0.2
      Duration: 0.2
    Rotate:
      AnimationType: 2
      Enabled: 1
      From: {x: 0, y: 0, z: 0}
      To: {x: 0, y: -180, z: 0}
      By: {x: 0, y: 0, z: 0}
      UseCustomFromAndTo: 0
      Vibrato: 10
      Elasticity: 1
      NumberOfLoops: -1
      LoopType: 1
      RotateMode: 0
      EaseType: 0
      Ease: 34
      AnimationCurve:
        serializedVersion: 2
        m_Curve: []
        m_PreInfinity: 2
        m_PostInfinity: 2
        m_RotationOrder: 4
      StartDelay: 0
      Duration: 0.3
    Scale:
      AnimationType: 2
      Enabled: 0
      From: {x: 0, y: 0, z: 0}
      To: {x: 0, y: 0.5, z: 1}
      By: {x: 0, y: 0, z: 0}
      UseCustomFromAndTo: 0
      Vibrato: 10
      Elasticity: 1
      NumberOfLoops: -1
      LoopType: 1
      EaseType: 0
      Ease: 5
      AnimationCurve:
        serializedVersion: 2
        m_Curve:
        - serializedVersion: 3
          time: 0.0011500716
          value: 0
          inSlope: 1
          outSlope: 1
          tangentMode: 0
          weightedMode: 0
          inWeight: 0.33333334
          outWeight: 0.33333334
        - serializedVersion: 3
          time: 0.18183987
          value: 0.9963956
          inSlope: 1.0000169
          outSlope: 1.0000169
          tangentMode: 0
          weightedMode: 0
          inWeight: 0.33333334
          outWeight: 0.33333334
        - serializedVersion: 3
          time: 0.30405074
          value: 0.27968055
          inSlope: -0.019073486
          outSlope: -0.019073486
          tangentMode: 0
          weightedMode: 0
          inWeight: 0.33333334
          outWeight: 0.33333334
        - serializedVersion: 3
          time: 0.48154142
          value: 0.7481303
          inSlope: 0.9252131
          outSlope: 0.9252131
          tangentMode: 0
          weightedMode: 0
          inWeight: 0.33333334
          outWeight: 0.33333334
        - serializedVersion: 3
          time: 0.5789693
          value: 0.38414803
          inSlope: 0.4518032
          outSlope: 0.4518032
          tangentMode: 0
          weightedMode: 0
          inWeight: 0.33333334
          outWeight: 0.33333334
        - serializedVersion: 3
          time: 0.72302365
          value: 0.6539519
          inSlope: 1.6307831
          outSlope: 1.6307831
          tangentMode: 0
          weightedMode: 0
          inWeight: 0.33333334
          outWeight: 0.33333334
        - serializedVersion: 3
          time: 0.80114186
          value: 0.5411123
          inSlope: 1.3419986
          outSlope: 1.3419986
          tangentMode: 0
          weightedMode: 0
          inWeight: 0.33333334
          outWeight: 0.33333334
        - serializedVersion: 3
          time: 1.0011501
          value: 1
          inSlope: 1
          outSlope: 1
          tangentMode: 0
          weightedMode: 0
          inWeight: 0.33333334
          outWeight: 0.33333334
        m_PreInfinity: 2
        m_PostInfinity: 2
        m_RotationOrder: 4
      StartDelay: 0
      Duration: 0.4
    Fade:
      AnimationType: 2
      Enabled: 1
      From: 0
      To: 0
      By: 0.5
      UseCustomFromAndTo: 0
      NumberOfLoops: -1
      LoopType: 1
      EaseType: 0
      Ease: 1
      AnimationCurve:
        serializedVersion: 2
        m_Curve: []
        m_PreInfinity: 2
        m_PostInfinity: 2
        m_RotationOrder: 4
      StartDelay: 0.2
      Duration: 0.2
  Category: Flip
  Name: FlipAndMoveToRight
--- !u!114 &114407861952134616
MonoBehaviour:
  m_ObjectHideFlags: 0
  m_CorrespondingSourceObject: {fileID: 0}
  m_PrefabInternal: {fileID: 0}
  m_GameObject: {fileID: 0}
  m_Enabled: 1
  m_EditorHideFlags: 0
  m_Script: {fileID: 11500000, guid: fe5b16c60b843134eb75c4ba6a7b6f52, type: 3}
  m_Name: FlipAndResizeRight
  m_EditorClassIdentifier: 
  Animation:
    AnimationType: 2
    Move:
      AnimationType: 2
      Enabled: 1
      From: {x: 0, y: 0, z: 0}
      To: {x: 0, y: 0, z: 0}
      By: {x: 0, y: 0, z: 0}
      UseCustomFromAndTo: 0
      Vibrato: 10
      Elasticity: 1
      NumberOfLoops: -1
      LoopType: 1
      Direction: 1
      CustomPosition: {x: 0, y: 0, z: 0}
      EaseType: 0
      Ease: 3
      AnimationCurve:
        serializedVersion: 2
        m_Curve:
        - serializedVersion: 3
          time: 0
          value: 0
          inSlope: 1
          outSlope: 1
          tangentMode: 0
          weightedMode: 0
          inWeight: 0.33333334
          outWeight: 0.33333334
        - serializedVersion: 3
          time: 0.17082776
          value: 1.2522181
          inSlope: 1.0000169
          outSlope: 1.0000169
          tangentMode: 0
          weightedMode: 0
          inWeight: 0.33333334
          outWeight: 0.33333334
        - serializedVersion: 3
          time: 0.35035205
          value: -0.018237352
          inSlope: 0.9998679
          outSlope: 0.9998679
          tangentMode: 0
          weightedMode: 0
          inWeight: 0.33333334
          outWeight: 0.33333334
        - serializedVersion: 3
          time: 0.6079814
          value: 0.7846122
          inSlope: 1.8180907
          outSlope: 1.8180907
          tangentMode: 0
          weightedMode: 0
          inWeight: 0.33333334
          outWeight: 0.33333334
        - serializedVersion: 3
          time: 0.8189187
          value: 0.18767625
          inSlope: 1.6653538
          outSlope: 1.6653538
          tangentMode: 0
          weightedMode: 0
          inWeight: 0.33333334
          outWeight: 0.33333334
        - serializedVersion: 3
          time: 1
          value: 1
          inSlope: 1
          outSlope: 1
          tangentMode: 0
          weightedMode: 0
          inWeight: 0.33333334
          outWeight: 0.33333334
        m_PreInfinity: 2
        m_PostInfinity: 2
        m_RotationOrder: 4
      StartDelay: 0.2
      Duration: 0.2
    Rotate:
      AnimationType: 2
      Enabled: 1
      From: {x: 0, y: 0, z: 0}
      To: {x: 0, y: 180, z: 0}
      By: {x: 0, y: 0, z: 0}
      UseCustomFromAndTo: 0
      Vibrato: 10
      Elasticity: 1
      NumberOfLoops: -1
      LoopType: 1
      RotateMode: 0
      EaseType: 0
      Ease: 34
      AnimationCurve:
        serializedVersion: 2
        m_Curve: []
        m_PreInfinity: 2
        m_PostInfinity: 2
        m_RotationOrder: 4
      StartDelay: 0.1
      Duration: 0.2
    Scale:
      AnimationType: 2
      Enabled: 1
      From: {x: 0, y: 0, z: 0}
      To: {x: 1.5, y: 1.5, z: 1}
      By: {x: 0, y: 0, z: 0}
      UseCustomFromAndTo: 0
      Vibrato: 10
      Elasticity: 1
      NumberOfLoops: -1
      LoopType: 1
      EaseType: 0
      Ease: 6
      AnimationCurve:
        serializedVersion: 2
        m_Curve:
        - serializedVersion: 3
          time: 0.0011500716
          value: 0
          inSlope: 1
          outSlope: 1
          tangentMode: 0
          weightedMode: 0
          inWeight: 0.33333334
          outWeight: 0.33333334
        - serializedVersion: 3
          time: 0.18183987
          value: 0.9963956
          inSlope: 1.0000169
          outSlope: 1.0000169
          tangentMode: 0
          weightedMode: 0
          inWeight: 0.33333334
          outWeight: 0.33333334
        - serializedVersion: 3
          time: 0.30405074
          value: 0.27968055
          inSlope: -0.019073486
          outSlope: -0.019073486
          tangentMode: 0
          weightedMode: 0
          inWeight: 0.33333334
          outWeight: 0.33333334
        - serializedVersion: 3
          time: 0.48154142
          value: 0.7481303
          inSlope: 0.9252131
          outSlope: 0.9252131
          tangentMode: 0
          weightedMode: 0
          inWeight: 0.33333334
          outWeight: 0.33333334
        - serializedVersion: 3
          time: 0.5789693
          value: 0.38414803
          inSlope: 0.4518032
          outSlope: 0.4518032
          tangentMode: 0
          weightedMode: 0
          inWeight: 0.33333334
          outWeight: 0.33333334
        - serializedVersion: 3
          time: 0.72302365
          value: 0.6539519
          inSlope: 1.6307831
          outSlope: 1.6307831
          tangentMode: 0
          weightedMode: 0
          inWeight: 0.33333334
          outWeight: 0.33333334
        - serializedVersion: 3
          time: 0.80114186
          value: 0.5411123
          inSlope: 1.3419986
          outSlope: 1.3419986
          tangentMode: 0
          weightedMode: 0
          inWeight: 0.33333334
          outWeight: 0.33333334
        - serializedVersion: 3
          time: 1.0011501
          value: 1
          inSlope: 1
          outSlope: 1
          tangentMode: 0
          weightedMode: 0
          inWeight: 0.33333334
          outWeight: 0.33333334
        m_PreInfinity: 2
        m_PostInfinity: 2
        m_RotationOrder: 4
      StartDelay: 0
      Duration: 0.2
    Fade:
      AnimationType: 2
      Enabled: 1
      From: 0
      To: 0
      By: 0.5
      UseCustomFromAndTo: 0
      NumberOfLoops: -1
      LoopType: 1
      EaseType: 0
      Ease: 1
      AnimationCurve:
        serializedVersion: 2
        m_Curve: []
        m_PreInfinity: 2
        m_PostInfinity: 2
        m_RotationOrder: 4
      StartDelay: 0.2
      Duration: 0.2
  Category: Flip
  Name: FlipAndResizeRight
--- !u!114 &114492962075670102
MonoBehaviour:
  m_ObjectHideFlags: 0
  m_CorrespondingSourceObject: {fileID: 0}
  m_PrefabInternal: {fileID: 0}
  m_GameObject: {fileID: 0}
  m_Enabled: 1
  m_EditorHideFlags: 0
  m_Script: {fileID: 11500000, guid: fe5b16c60b843134eb75c4ba6a7b6f52, type: 3}
  m_Name: FlipAndResizeBottom
  m_EditorClassIdentifier: 
  Animation:
    AnimationType: 2
    Move:
      AnimationType: 2
      Enabled: 1
      From: {x: 0, y: 0, z: 0}
      To: {x: 0, y: 0, z: 0}
      By: {x: 0, y: 0, z: 0}
      UseCustomFromAndTo: 0
      Vibrato: 10
      Elasticity: 1
      NumberOfLoops: -1
      LoopType: 1
      Direction: 3
      CustomPosition: {x: 0, y: 0, z: 0}
      EaseType: 0
      Ease: 3
      AnimationCurve:
        serializedVersion: 2
        m_Curve:
        - serializedVersion: 3
          time: 0
          value: 0
          inSlope: 1
          outSlope: 1
          tangentMode: 0
          weightedMode: 0
          inWeight: 0.33333334
          outWeight: 0.33333334
        - serializedVersion: 3
          time: 0.17082776
          value: 1.2522181
          inSlope: 1.0000169
          outSlope: 1.0000169
          tangentMode: 0
          weightedMode: 0
          inWeight: 0.33333334
          outWeight: 0.33333334
        - serializedVersion: 3
          time: 0.35035205
          value: -0.018237352
          inSlope: 0.9998679
          outSlope: 0.9998679
          tangentMode: 0
          weightedMode: 0
          inWeight: 0.33333334
          outWeight: 0.33333334
        - serializedVersion: 3
          time: 0.6079814
          value: 0.7846122
          inSlope: 1.8180907
          outSlope: 1.8180907
          tangentMode: 0
          weightedMode: 0
          inWeight: 0.33333334
          outWeight: 0.33333334
        - serializedVersion: 3
          time: 0.8189187
          value: 0.18767625
          inSlope: 1.6653538
          outSlope: 1.6653538
          tangentMode: 0
          weightedMode: 0
          inWeight: 0.33333334
          outWeight: 0.33333334
        - serializedVersion: 3
          time: 1
          value: 1
          inSlope: 1
          outSlope: 1
          tangentMode: 0
          weightedMode: 0
          inWeight: 0.33333334
          outWeight: 0.33333334
        m_PreInfinity: 2
        m_PostInfinity: 2
        m_RotationOrder: 4
      StartDelay: 0.2
      Duration: 0.2
    Rotate:
      AnimationType: 2
      Enabled: 1
      From: {x: 0, y: 0, z: 0}
      To: {x: 90, y: 0, z: 0}
      By: {x: 0, y: 0, z: 0}
      UseCustomFromAndTo: 0
      Vibrato: 10
      Elasticity: 1
      NumberOfLoops: -1
      LoopType: 1
      RotateMode: 0
      EaseType: 0
      Ease: 34
      AnimationCurve:
        serializedVersion: 2
        m_Curve: []
        m_PreInfinity: 2
        m_PostInfinity: 2
        m_RotationOrder: 4
      StartDelay: 0.1
      Duration: 0.2
    Scale:
      AnimationType: 2
      Enabled: 1
      From: {x: 0, y: 0, z: 0}
      To: {x: 1.5, y: 1.5, z: 1}
      By: {x: 0, y: 0, z: 0}
      UseCustomFromAndTo: 0
      Vibrato: 10
      Elasticity: 1
      NumberOfLoops: -1
      LoopType: 1
      EaseType: 0
      Ease: 6
      AnimationCurve:
        serializedVersion: 2
        m_Curve:
        - serializedVersion: 3
          time: 0.0011500716
          value: 0
          inSlope: 1
          outSlope: 1
          tangentMode: 0
          weightedMode: 0
          inWeight: 0.33333334
          outWeight: 0.33333334
        - serializedVersion: 3
          time: 0.18183987
          value: 0.9963956
          inSlope: 1.0000169
          outSlope: 1.0000169
          tangentMode: 0
          weightedMode: 0
          inWeight: 0.33333334
          outWeight: 0.33333334
        - serializedVersion: 3
          time: 0.30405074
          value: 0.27968055
          inSlope: -0.019073486
          outSlope: -0.019073486
          tangentMode: 0
          weightedMode: 0
          inWeight: 0.33333334
          outWeight: 0.33333334
        - serializedVersion: 3
          time: 0.48154142
          value: 0.7481303
          inSlope: 0.9252131
          outSlope: 0.9252131
          tangentMode: 0
          weightedMode: 0
          inWeight: 0.33333334
          outWeight: 0.33333334
        - serializedVersion: 3
          time: 0.5789693
          value: 0.38414803
          inSlope: 0.4518032
          outSlope: 0.4518032
          tangentMode: 0
          weightedMode: 0
          inWeight: 0.33333334
          outWeight: 0.33333334
        - serializedVersion: 3
          time: 0.72302365
          value: 0.6539519
          inSlope: 1.6307831
          outSlope: 1.6307831
          tangentMode: 0
          weightedMode: 0
          inWeight: 0.33333334
          outWeight: 0.33333334
        - serializedVersion: 3
          time: 0.80114186
          value: 0.5411123
          inSlope: 1.3419986
          outSlope: 1.3419986
          tangentMode: 0
          weightedMode: 0
          inWeight: 0.33333334
          outWeight: 0.33333334
        - serializedVersion: 3
          time: 1.0011501
          value: 1
          inSlope: 1
          outSlope: 1
          tangentMode: 0
          weightedMode: 0
          inWeight: 0.33333334
          outWeight: 0.33333334
        m_PreInfinity: 2
        m_PostInfinity: 2
        m_RotationOrder: 4
      StartDelay: 0
      Duration: 0.2
    Fade:
      AnimationType: 2
      Enabled: 1
      From: 0
      To: 0
      By: 0.5
      UseCustomFromAndTo: 0
      NumberOfLoops: -1
      LoopType: 1
      EaseType: 0
      Ease: 1
      AnimationCurve:
        serializedVersion: 2
        m_Curve: []
        m_PreInfinity: 2
        m_PostInfinity: 2
        m_RotationOrder: 4
      StartDelay: 0.2
      Duration: 0.2
  Category: Flip
  Name: FlipAndResizeBottom
--- !u!114 &114523997134475066
MonoBehaviour:
  m_ObjectHideFlags: 0
  m_CorrespondingSourceObject: {fileID: 0}
  m_PrefabInternal: {fileID: 0}
  m_GameObject: {fileID: 0}
  m_Enabled: 1
  m_EditorHideFlags: 0
  m_Script: {fileID: 11500000, guid: fe5b16c60b843134eb75c4ba6a7b6f52, type: 3}
  m_Name: FlipAndResizeTop
  m_EditorClassIdentifier: 
  Animation:
    AnimationType: 2
    Move:
      AnimationType: 2
      Enabled: 1
      From: {x: 0, y: 0, z: 0}
      To: {x: 0, y: 0, z: 0}
      By: {x: 0, y: 0, z: 0}
      UseCustomFromAndTo: 0
      Vibrato: 10
      Elasticity: 1
      NumberOfLoops: -1
      LoopType: 1
      Direction: 2
      CustomPosition: {x: 0, y: 0, z: 0}
      EaseType: 0
      Ease: 3
      AnimationCurve:
        serializedVersion: 2
        m_Curve:
        - serializedVersion: 3
          time: 0
          value: 0
          inSlope: 1
          outSlope: 1
          tangentMode: 0
          weightedMode: 0
          inWeight: 0.33333334
          outWeight: 0.33333334
        - serializedVersion: 3
          time: 0.17082776
          value: 1.2522181
          inSlope: 1.0000169
          outSlope: 1.0000169
          tangentMode: 0
          weightedMode: 0
          inWeight: 0.33333334
          outWeight: 0.33333334
        - serializedVersion: 3
          time: 0.35035205
          value: -0.018237352
          inSlope: 0.9998679
          outSlope: 0.9998679
          tangentMode: 0
          weightedMode: 0
          inWeight: 0.33333334
          outWeight: 0.33333334
        - serializedVersion: 3
          time: 0.6079814
          value: 0.7846122
          inSlope: 1.8180907
          outSlope: 1.8180907
          tangentMode: 0
          weightedMode: 0
          inWeight: 0.33333334
          outWeight: 0.33333334
        - serializedVersion: 3
          time: 0.8189187
          value: 0.18767625
          inSlope: 1.6653538
          outSlope: 1.6653538
          tangentMode: 0
          weightedMode: 0
          inWeight: 0.33333334
          outWeight: 0.33333334
        - serializedVersion: 3
          time: 1
          value: 1
          inSlope: 1
          outSlope: 1
          tangentMode: 0
          weightedMode: 0
          inWeight: 0.33333334
          outWeight: 0.33333334
        m_PreInfinity: 2
        m_PostInfinity: 2
        m_RotationOrder: 4
      StartDelay: 0.2
      Duration: 0.2
    Rotate:
      AnimationType: 2
      Enabled: 1
      From: {x: 0, y: 0, z: 0}
      To: {x: -90, y: 0, z: 0}
      By: {x: 0, y: 0, z: 0}
      UseCustomFromAndTo: 0
      Vibrato: 10
      Elasticity: 1
      NumberOfLoops: -1
      LoopType: 1
      RotateMode: 0
      EaseType: 0
      Ease: 34
      AnimationCurve:
        serializedVersion: 2
        m_Curve: []
        m_PreInfinity: 2
        m_PostInfinity: 2
        m_RotationOrder: 4
      StartDelay: 0.1
      Duration: 0.2
    Scale:
      AnimationType: 2
      Enabled: 1
      From: {x: 0, y: 0, z: 0}
      To: {x: 1.5, y: 1.5, z: 1}
      By: {x: 0, y: 0, z: 0}
      UseCustomFromAndTo: 0
      Vibrato: 10
      Elasticity: 1
      NumberOfLoops: -1
      LoopType: 1
      EaseType: 0
      Ease: 6
      AnimationCurve:
        serializedVersion: 2
        m_Curve:
        - serializedVersion: 3
          time: 0.0011500716
          value: 0
          inSlope: 1
          outSlope: 1
          tangentMode: 0
          weightedMode: 0
          inWeight: 0.33333334
          outWeight: 0.33333334
        - serializedVersion: 3
          time: 0.18183987
          value: 0.9963956
          inSlope: 1.0000169
          outSlope: 1.0000169
          tangentMode: 0
          weightedMode: 0
          inWeight: 0.33333334
          outWeight: 0.33333334
        - serializedVersion: 3
          time: 0.30405074
          value: 0.27968055
          inSlope: -0.019073486
          outSlope: -0.019073486
          tangentMode: 0
          weightedMode: 0
          inWeight: 0.33333334
          outWeight: 0.33333334
        - serializedVersion: 3
          time: 0.48154142
          value: 0.7481303
          inSlope: 0.9252131
          outSlope: 0.9252131
          tangentMode: 0
          weightedMode: 0
          inWeight: 0.33333334
          outWeight: 0.33333334
        - serializedVersion: 3
          time: 0.5789693
          value: 0.38414803
          inSlope: 0.4518032
          outSlope: 0.4518032
          tangentMode: 0
          weightedMode: 0
          inWeight: 0.33333334
          outWeight: 0.33333334
        - serializedVersion: 3
          time: 0.72302365
          value: 0.6539519
          inSlope: 1.6307831
          outSlope: 1.6307831
          tangentMode: 0
          weightedMode: 0
          inWeight: 0.33333334
          outWeight: 0.33333334
        - serializedVersion: 3
          time: 0.80114186
          value: 0.5411123
          inSlope: 1.3419986
          outSlope: 1.3419986
          tangentMode: 0
          weightedMode: 0
          inWeight: 0.33333334
          outWeight: 0.33333334
        - serializedVersion: 3
          time: 1.0011501
          value: 1
          inSlope: 1
          outSlope: 1
          tangentMode: 0
          weightedMode: 0
          inWeight: 0.33333334
          outWeight: 0.33333334
        m_PreInfinity: 2
        m_PostInfinity: 2
        m_RotationOrder: 4
      StartDelay: 0
      Duration: 0.2
    Fade:
      AnimationType: 2
      Enabled: 1
      From: 0
      To: 0
      By: 0.5
      UseCustomFromAndTo: 0
      NumberOfLoops: -1
      LoopType: 1
      EaseType: 0
      Ease: 1
      AnimationCurve:
        serializedVersion: 2
        m_Curve: []
        m_PreInfinity: 2
        m_PostInfinity: 2
        m_RotationOrder: 4
      StartDelay: 0.2
      Duration: 0.2
  Category: Flip
  Name: FlipAndResizeTop
--- !u!114 &114550289055443928
MonoBehaviour:
  m_ObjectHideFlags: 0
  m_CorrespondingSourceObject: {fileID: 0}
  m_PrefabInternal: {fileID: 0}
  m_GameObject: {fileID: 0}
  m_Enabled: 1
  m_EditorHideFlags: 0
  m_Script: {fileID: 11500000, guid: fe5b16c60b843134eb75c4ba6a7b6f52, type: 3}
  m_Name: ThrowToLeft
  m_EditorClassIdentifier: 
  Animation:
    AnimationType: 2
    Move:
      AnimationType: 2
      Enabled: 1
      From: {x: 0, y: 0, z: 0}
      To: {x: 0, y: 0, z: 0}
      By: {x: 0, y: 0, z: 0}
      UseCustomFromAndTo: 0
      Vibrato: 10
      Elasticity: 1
      NumberOfLoops: -1
      LoopType: 1
      Direction: 0
      CustomPosition: {x: 0, y: 0, z: 0}
      EaseType: 0
      Ease: 3
      AnimationCurve:
        serializedVersion: 2
        m_Curve:
        - serializedVersion: 3
          time: 0
          value: 0
          inSlope: 1
          outSlope: 1
          tangentMode: 0
          weightedMode: 0
          inWeight: 0.33333334
          outWeight: 0.33333334
        - serializedVersion: 3
          time: 0.17082776
          value: 1.2522181
          inSlope: 1.0000169
          outSlope: 1.0000169
          tangentMode: 0
          weightedMode: 0
          inWeight: 0.33333334
          outWeight: 0.33333334
        - serializedVersion: 3
          time: 0.35035205
          value: -0.018237352
          inSlope: 0.9998679
          outSlope: 0.9998679
          tangentMode: 0
          weightedMode: 0
          inWeight: 0.33333334
          outWeight: 0.33333334
        - serializedVersion: 3
          time: 0.6079814
          value: 0.7846122
          inSlope: 1.8180907
          outSlope: 1.8180907
          tangentMode: 0
          weightedMode: 0
          inWeight: 0.33333334
          outWeight: 0.33333334
        - serializedVersion: 3
          time: 0.8189187
          value: 0.18767625
          inSlope: 1.6653538
          outSlope: 1.6653538
          tangentMode: 0
          weightedMode: 0
          inWeight: 0.33333334
          outWeight: 0.33333334
        - serializedVersion: 3
          time: 1
          value: 1
          inSlope: 1
          outSlope: 1
          tangentMode: 0
          weightedMode: 0
          inWeight: 0.33333334
          outWeight: 0.33333334
        m_PreInfinity: 2
        m_PostInfinity: 2
        m_RotationOrder: 4
      StartDelay: 0.2
      Duration: 0.2
    Rotate:
      AnimationType: 2
      Enabled: 1
      From: {x: 0, y: 0, z: 0}
      To: {x: -180, y: 180, z: 0}
      By: {x: 0, y: 0, z: 0}
      UseCustomFromAndTo: 0
      Vibrato: 10
      Elasticity: 1
      NumberOfLoops: -1
      LoopType: 1
      RotateMode: 0
      EaseType: 0
      Ease: 34
      AnimationCurve:
        serializedVersion: 2
        m_Curve: []
        m_PreInfinity: 2
        m_PostInfinity: 2
        m_RotationOrder: 4
      StartDelay: 0.1
      Duration: 0.2
    Scale:
      AnimationType: 2
      Enabled: 1
      From: {x: 0, y: 0, z: 0}
      To: {x: 1.1, y: 1.1, z: 1}
      By: {x: 0, y: 0, z: 0}
      UseCustomFromAndTo: 0
      Vibrato: 10
      Elasticity: 1
      NumberOfLoops: -1
      LoopType: 1
      EaseType: 0
      Ease: 6
      AnimationCurve:
        serializedVersion: 2
        m_Curve:
        - serializedVersion: 3
          time: 0.0011500716
          value: 0
          inSlope: 1
          outSlope: 1
          tangentMode: 0
          weightedMode: 0
          inWeight: 0.33333334
          outWeight: 0.33333334
        - serializedVersion: 3
          time: 0.18183987
          value: 0.9963956
          inSlope: 1.0000169
          outSlope: 1.0000169
          tangentMode: 0
          weightedMode: 0
          inWeight: 0.33333334
          outWeight: 0.33333334
        - serializedVersion: 3
          time: 0.30405074
          value: 0.27968055
          inSlope: -0.019073486
          outSlope: -0.019073486
          tangentMode: 0
          weightedMode: 0
          inWeight: 0.33333334
          outWeight: 0.33333334
        - serializedVersion: 3
          time: 0.48154142
          value: 0.7481303
          inSlope: 0.9252131
          outSlope: 0.9252131
          tangentMode: 0
          weightedMode: 0
          inWeight: 0.33333334
          outWeight: 0.33333334
        - serializedVersion: 3
          time: 0.5789693
          value: 0.38414803
          inSlope: 0.4518032
          outSlope: 0.4518032
          tangentMode: 0
          weightedMode: 0
          inWeight: 0.33333334
          outWeight: 0.33333334
        - serializedVersion: 3
          time: 0.72302365
          value: 0.6539519
          inSlope: 1.6307831
          outSlope: 1.6307831
          tangentMode: 0
          weightedMode: 0
          inWeight: 0.33333334
          outWeight: 0.33333334
        - serializedVersion: 3
          time: 0.80114186
          value: 0.5411123
          inSlope: 1.3419986
          outSlope: 1.3419986
          tangentMode: 0
          weightedMode: 0
          inWeight: 0.33333334
          outWeight: 0.33333334
        - serializedVersion: 3
          time: 1.0011501
          value: 1
          inSlope: 1
          outSlope: 1
          tangentMode: 0
          weightedMode: 0
          inWeight: 0.33333334
          outWeight: 0.33333334
        m_PreInfinity: 2
        m_PostInfinity: 2
        m_RotationOrder: 4
      StartDelay: 0
      Duration: 0.2
    Fade:
      AnimationType: 2
      Enabled: 1
      From: 0
      To: 0
      By: 0.5
      UseCustomFromAndTo: 0
      NumberOfLoops: -1
      LoopType: 1
      EaseType: 0
      Ease: 1
      AnimationCurve:
        serializedVersion: 2
        m_Curve: []
        m_PreInfinity: 2
        m_PostInfinity: 2
        m_RotationOrder: 4
      StartDelay: 0.2
      Duration: 0.2
  Category: Flip
  Name: ThrowToLeft
--- !u!114 &114861571424502756
MonoBehaviour:
  m_ObjectHideFlags: 0
  m_CorrespondingSourceObject: {fileID: 0}
  m_PrefabInternal: {fileID: 0}
  m_GameObject: {fileID: 0}
  m_Enabled: 1
  m_EditorHideFlags: 0
  m_Script: {fileID: 11500000, guid: fe5b16c60b843134eb75c4ba6a7b6f52, type: 3}
  m_Name: FlipAndMoveToLeft
  m_EditorClassIdentifier: 
  Animation:
    AnimationType: 2
    Move:
      AnimationType: 2
      Enabled: 1
      From: {x: 0, y: 0, z: 0}
      To: {x: 0, y: 0, z: 0}
      By: {x: 0, y: 0, z: 0}
      UseCustomFromAndTo: 0
      Vibrato: 10
      Elasticity: 1
      NumberOfLoops: -1
      LoopType: 1
      Direction: 0
      CustomPosition: {x: 0, y: 0, z: 0}
      EaseType: 0
      Ease: 3
      AnimationCurve:
        serializedVersion: 2
        m_Curve:
        - serializedVersion: 3
          time: 0
          value: 0
          inSlope: 1
          outSlope: 1
          tangentMode: 0
          weightedMode: 0
          inWeight: 0.33333334
          outWeight: 0.33333334
        - serializedVersion: 3
          time: 0.17082776
          value: 1.2522181
          inSlope: 1.0000169
          outSlope: 1.0000169
          tangentMode: 0
          weightedMode: 0
          inWeight: 0.33333334
          outWeight: 0.33333334
        - serializedVersion: 3
          time: 0.35035205
          value: -0.018237352
          inSlope: 0.9998679
          outSlope: 0.9998679
          tangentMode: 0
          weightedMode: 0
          inWeight: 0.33333334
          outWeight: 0.33333334
        - serializedVersion: 3
          time: 0.6079814
          value: 0.7846122
          inSlope: 1.8180907
          outSlope: 1.8180907
          tangentMode: 0
          weightedMode: 0
          inWeight: 0.33333334
          outWeight: 0.33333334
        - serializedVersion: 3
          time: 0.8189187
          value: 0.18767625
          inSlope: 1.6653538
          outSlope: 1.6653538
          tangentMode: 0
          weightedMode: 0
          inWeight: 0.33333334
          outWeight: 0.33333334
        - serializedVersion: 3
          time: 1
          value: 1
          inSlope: 1
          outSlope: 1
          tangentMode: 0
          weightedMode: 0
          inWeight: 0.33333334
          outWeight: 0.33333334
        m_PreInfinity: 2
        m_PostInfinity: 2
        m_RotationOrder: 4
      StartDelay: 0.2
      Duration: 0.2
    Rotate:
      AnimationType: 2
      Enabled: 1
      From: {x: 0, y: 0, z: 0}
      To: {x: 0, y: 180, z: 0}
      By: {x: 0, y: 0, z: 0}
      UseCustomFromAndTo: 0
      Vibrato: 10
      Elasticity: 1
      NumberOfLoops: -1
      LoopType: 1
      RotateMode: 0
      EaseType: 0
      Ease: 34
      AnimationCurve:
        serializedVersion: 2
        m_Curve: []
        m_PreInfinity: 2
        m_PostInfinity: 2
        m_RotationOrder: 4
      StartDelay: 0
      Duration: 0.3
    Scale:
      AnimationType: 2
      Enabled: 0
      From: {x: 0, y: 0, z: 0}
      To: {x: 0, y: 0.5, z: 1}
      By: {x: 0, y: 0, z: 0}
      UseCustomFromAndTo: 0
      Vibrato: 10
      Elasticity: 1
      NumberOfLoops: -1
      LoopType: 1
      EaseType: 0
      Ease: 5
      AnimationCurve:
        serializedVersion: 2
        m_Curve:
        - serializedVersion: 3
          time: 0.0011500716
          value: 0
          inSlope: 1
          outSlope: 1
          tangentMode: 0
          weightedMode: 0
          inWeight: 0.33333334
          outWeight: 0.33333334
        - serializedVersion: 3
          time: 0.18183987
          value: 0.9963956
          inSlope: 1.0000169
          outSlope: 1.0000169
          tangentMode: 0
          weightedMode: 0
          inWeight: 0.33333334
          outWeight: 0.33333334
        - serializedVersion: 3
          time: 0.30405074
          value: 0.27968055
          inSlope: -0.019073486
          outSlope: -0.019073486
          tangentMode: 0
          weightedMode: 0
          inWeight: 0.33333334
          outWeight: 0.33333334
        - serializedVersion: 3
          time: 0.48154142
          value: 0.7481303
          inSlope: 0.9252131
          outSlope: 0.9252131
          tangentMode: 0
          weightedMode: 0
          inWeight: 0.33333334
          outWeight: 0.33333334
        - serializedVersion: 3
          time: 0.5789693
          value: 0.38414803
          inSlope: 0.4518032
          outSlope: 0.4518032
          tangentMode: 0
          weightedMode: 0
          inWeight: 0.33333334
          outWeight: 0.33333334
        - serializedVersion: 3
          time: 0.72302365
          value: 0.6539519
          inSlope: 1.6307831
          outSlope: 1.6307831
          tangentMode: 0
          weightedMode: 0
          inWeight: 0.33333334
          outWeight: 0.33333334
        - serializedVersion: 3
          time: 0.80114186
          value: 0.5411123
          inSlope: 1.3419986
          outSlope: 1.3419986
          tangentMode: 0
          weightedMode: 0
          inWeight: 0.33333334
          outWeight: 0.33333334
        - serializedVersion: 3
          time: 1.0011501
          value: 1
          inSlope: 1
          outSlope: 1
          tangentMode: 0
          weightedMode: 0
          inWeight: 0.33333334
          outWeight: 0.33333334
        m_PreInfinity: 2
        m_PostInfinity: 2
        m_RotationOrder: 4
      StartDelay: 0
      Duration: 0.4
    Fade:
      AnimationType: 2
      Enabled: 1
      From: 0
      To: 0
      By: 0.5
      UseCustomFromAndTo: 0
      NumberOfLoops: -1
      LoopType: 1
      EaseType: 0
      Ease: 1
      AnimationCurve:
        serializedVersion: 2
        m_Curve: []
        m_PreInfinity: 2
        m_PostInfinity: 2
        m_RotationOrder: 4
      StartDelay: 0.2
      Duration: 0.2
  Category: Flip
  Name: FlipAndMoveToLeft
--- !u!114 &114953950591589364
MonoBehaviour:
  m_ObjectHideFlags: 0
  m_CorrespondingSourceObject: {fileID: 0}
  m_PrefabInternal: {fileID: 0}
  m_GameObject: {fileID: 0}
  m_Enabled: 1
  m_EditorHideFlags: 0
  m_Script: {fileID: 11500000, guid: fe5b16c60b843134eb75c4ba6a7b6f52, type: 3}
  m_Name: FlipAndResizeLeft
  m_EditorClassIdentifier: 
  Animation:
    AnimationType: 2
    Move:
      AnimationType: 2
      Enabled: 1
      From: {x: 0, y: 0, z: 0}
      To: {x: 0, y: 0, z: 0}
      By: {x: 0, y: 0, z: 0}
      UseCustomFromAndTo: 0
      Vibrato: 10
      Elasticity: 1
      NumberOfLoops: -1
      LoopType: 1
      Direction: 0
      CustomPosition: {x: 0, y: 0, z: 0}
      EaseType: 0
      Ease: 3
      AnimationCurve:
        serializedVersion: 2
        m_Curve:
        - serializedVersion: 3
          time: 0
          value: 0
          inSlope: 1
          outSlope: 1
          tangentMode: 0
          weightedMode: 0
          inWeight: 0.33333334
          outWeight: 0.33333334
        - serializedVersion: 3
          time: 0.17082776
          value: 1.2522181
          inSlope: 1.0000169
          outSlope: 1.0000169
          tangentMode: 0
          weightedMode: 0
          inWeight: 0.33333334
          outWeight: 0.33333334
        - serializedVersion: 3
          time: 0.35035205
          value: -0.018237352
          inSlope: 0.9998679
          outSlope: 0.9998679
          tangentMode: 0
          weightedMode: 0
          inWeight: 0.33333334
          outWeight: 0.33333334
        - serializedVersion: 3
          time: 0.6079814
          value: 0.7846122
          inSlope: 1.8180907
          outSlope: 1.8180907
          tangentMode: 0
          weightedMode: 0
          inWeight: 0.33333334
          outWeight: 0.33333334
        - serializedVersion: 3
          time: 0.8189187
          value: 0.18767625
          inSlope: 1.6653538
          outSlope: 1.6653538
          tangentMode: 0
          weightedMode: 0
          inWeight: 0.33333334
          outWeight: 0.33333334
        - serializedVersion: 3
          time: 1
          value: 1
          inSlope: 1
          outSlope: 1
          tangentMode: 0
          weightedMode: 0
          inWeight: 0.33333334
          outWeight: 0.33333334
        m_PreInfinity: 2
        m_PostInfinity: 2
        m_RotationOrder: 4
      StartDelay: 0.2
      Duration: 0.2
    Rotate:
      AnimationType: 2
      Enabled: 1
      From: {x: 0, y: 0, z: 0}
      To: {x: 0, y: 180, z: 0}
      By: {x: 0, y: 0, z: 0}
      UseCustomFromAndTo: 0
      Vibrato: 10
      Elasticity: 1
      NumberOfLoops: -1
      LoopType: 1
      RotateMode: 0
      EaseType: 0
      Ease: 34
      AnimationCurve:
        serializedVersion: 2
        m_Curve: []
        m_PreInfinity: 2
        m_PostInfinity: 2
        m_RotationOrder: 4
      StartDelay: 0.1
      Duration: 0.2
    Scale:
      AnimationType: 2
      Enabled: 1
      From: {x: 0, y: 0, z: 0}
      To: {x: 1.5, y: 1.5, z: 1}
      By: {x: 0, y: 0, z: 0}
      UseCustomFromAndTo: 0
      Vibrato: 10
      Elasticity: 1
      NumberOfLoops: -1
      LoopType: 1
      EaseType: 0
      Ease: 6
      AnimationCurve:
        serializedVersion: 2
        m_Curve:
        - serializedVersion: 3
          time: 0.0011500716
          value: 0
          inSlope: 1
          outSlope: 1
          tangentMode: 0
          weightedMode: 0
          inWeight: 0.33333334
          outWeight: 0.33333334
        - serializedVersion: 3
          time: 0.18183987
          value: 0.9963956
          inSlope: 1.0000169
          outSlope: 1.0000169
          tangentMode: 0
          weightedMode: 0
          inWeight: 0.33333334
          outWeight: 0.33333334
        - serializedVersion: 3
          time: 0.30405074
          value: 0.27968055
          inSlope: -0.019073486
          outSlope: -0.019073486
          tangentMode: 0
          weightedMode: 0
          inWeight: 0.33333334
          outWeight: 0.33333334
        - serializedVersion: 3
          time: 0.48154142
          value: 0.7481303
          inSlope: 0.9252131
          outSlope: 0.9252131
          tangentMode: 0
          weightedMode: 0
          inWeight: 0.33333334
          outWeight: 0.33333334
        - serializedVersion: 3
          time: 0.5789693
          value: 0.38414803
          inSlope: 0.4518032
          outSlope: 0.4518032
          tangentMode: 0
          weightedMode: 0
          inWeight: 0.33333334
          outWeight: 0.33333334
        - serializedVersion: 3
          time: 0.72302365
          value: 0.6539519
          inSlope: 1.6307831
          outSlope: 1.6307831
          tangentMode: 0
          weightedMode: 0
          inWeight: 0.33333334
          outWeight: 0.33333334
        - serializedVersion: 3
          time: 0.80114186
          value: 0.5411123
          inSlope: 1.3419986
          outSlope: 1.3419986
          tangentMode: 0
          weightedMode: 0
          inWeight: 0.33333334
          outWeight: 0.33333334
        - serializedVersion: 3
          time: 1.0011501
          value: 1
          inSlope: 1
          outSlope: 1
          tangentMode: 0
          weightedMode: 0
          inWeight: 0.33333334
          outWeight: 0.33333334
        m_PreInfinity: 2
        m_PostInfinity: 2
        m_RotationOrder: 4
      StartDelay: 0
      Duration: 0.2
    Fade:
      AnimationType: 2
      Enabled: 1
      From: 0
      To: 0
      By: 0.5
      UseCustomFromAndTo: 0
      NumberOfLoops: -1
      LoopType: 1
      EaseType: 0
      Ease: 1
      AnimationCurve:
        serializedVersion: 2
        m_Curve: []
        m_PreInfinity: 2
        m_PostInfinity: 2
        m_RotationOrder: 4
      StartDelay: 0.2
      Duration: 0.2
  Category: Flip
  Name: FlipAndResizeLeft
--- !u!114 &114966422155997356
MonoBehaviour:
  m_ObjectHideFlags: 0
  m_CorrespondingSourceObject: {fileID: 0}
  m_PrefabInternal: {fileID: 0}
  m_GameObject: {fileID: 0}
  m_Enabled: 1
  m_EditorHideFlags: 0
  m_Script: {fileID: 11500000, guid: fe5b16c60b843134eb75c4ba6a7b6f52, type: 3}
  m_Name: ThrowToTop
  m_EditorClassIdentifier: 
  Animation:
    AnimationType: 2
    Move:
      AnimationType: 2
      Enabled: 1
      From: {x: 0, y: 0, z: 0}
      To: {x: 0, y: 0, z: 0}
      By: {x: 0, y: 0, z: 0}
      UseCustomFromAndTo: 0
      Vibrato: 10
      Elasticity: 1
      NumberOfLoops: -1
      LoopType: 1
      Direction: 2
      CustomPosition: {x: 0, y: 0, z: 0}
      EaseType: 0
      Ease: 3
      AnimationCurve:
        serializedVersion: 2
        m_Curve:
        - serializedVersion: 3
          time: 0
          value: 0
          inSlope: 1
          outSlope: 1
          tangentMode: 0
          weightedMode: 0
          inWeight: 0.33333334
          outWeight: 0.33333334
        - serializedVersion: 3
          time: 0.17082776
          value: 1.2522181
          inSlope: 1.0000169
          outSlope: 1.0000169
          tangentMode: 0
          weightedMode: 0
          inWeight: 0.33333334
          outWeight: 0.33333334
        - serializedVersion: 3
          time: 0.35035205
          value: -0.018237352
          inSlope: 0.9998679
          outSlope: 0.9998679
          tangentMode: 0
          weightedMode: 0
          inWeight: 0.33333334
          outWeight: 0.33333334
        - serializedVersion: 3
          time: 0.6079814
          value: 0.7846122
          inSlope: 1.8180907
          outSlope: 1.8180907
          tangentMode: 0
          weightedMode: 0
          inWeight: 0.33333334
          outWeight: 0.33333334
        - serializedVersion: 3
          time: 0.8189187
          value: 0.18767625
          inSlope: 1.6653538
          outSlope: 1.6653538
          tangentMode: 0
          weightedMode: 0
          inWeight: 0.33333334
          outWeight: 0.33333334
        - serializedVersion: 3
          time: 1
          value: 1
          inSlope: 1
          outSlope: 1
          tangentMode: 0
          weightedMode: 0
          inWeight: 0.33333334
          outWeight: 0.33333334
        m_PreInfinity: 2
        m_PostInfinity: 2
        m_RotationOrder: 4
      StartDelay: 0.2
      Duration: 0.2
    Rotate:
      AnimationType: 2
      Enabled: 1
      From: {x: 0, y: 0, z: 0}
      To: {x: 180, y: -180, z: 0}
      By: {x: 0, y: 0, z: 0}
      UseCustomFromAndTo: 0
      Vibrato: 10
      Elasticity: 1
      NumberOfLoops: -1
      LoopType: 1
      RotateMode: 0
      EaseType: 0
      Ease: 34
      AnimationCurve:
        serializedVersion: 2
        m_Curve: []
        m_PreInfinity: 2
        m_PostInfinity: 2
        m_RotationOrder: 4
      StartDelay: 0.1
      Duration: 0.2
    Scale:
      AnimationType: 2
      Enabled: 1
      From: {x: 0, y: 0, z: 0}
      To: {x: 1.1, y: 1.1, z: 1}
      By: {x: 0, y: 0, z: 0}
      UseCustomFromAndTo: 0
      Vibrato: 10
      Elasticity: 1
      NumberOfLoops: -1
      LoopType: 1
      EaseType: 0
      Ease: 6
      AnimationCurve:
        serializedVersion: 2
        m_Curve:
        - serializedVersion: 3
          time: 0.0011500716
          value: 0
          inSlope: 1
          outSlope: 1
          tangentMode: 0
          weightedMode: 0
          inWeight: 0.33333334
          outWeight: 0.33333334
        - serializedVersion: 3
          time: 0.18183987
          value: 0.9963956
          inSlope: 1.0000169
          outSlope: 1.0000169
          tangentMode: 0
          weightedMode: 0
          inWeight: 0.33333334
          outWeight: 0.33333334
        - serializedVersion: 3
          time: 0.30405074
          value: 0.27968055
          inSlope: -0.019073486
          outSlope: -0.019073486
          tangentMode: 0
          weightedMode: 0
          inWeight: 0.33333334
          outWeight: 0.33333334
        - serializedVersion: 3
          time: 0.48154142
          value: 0.7481303
          inSlope: 0.9252131
          outSlope: 0.9252131
          tangentMode: 0
          weightedMode: 0
          inWeight: 0.33333334
          outWeight: 0.33333334
        - serializedVersion: 3
          time: 0.5789693
          value: 0.38414803
          inSlope: 0.4518032
          outSlope: 0.4518032
          tangentMode: 0
          weightedMode: 0
          inWeight: 0.33333334
          outWeight: 0.33333334
        - serializedVersion: 3
          time: 0.72302365
          value: 0.6539519
          inSlope: 1.6307831
          outSlope: 1.6307831
          tangentMode: 0
          weightedMode: 0
          inWeight: 0.33333334
          outWeight: 0.33333334
        - serializedVersion: 3
          time: 0.80114186
          value: 0.5411123
          inSlope: 1.3419986
          outSlope: 1.3419986
          tangentMode: 0
          weightedMode: 0
          inWeight: 0.33333334
          outWeight: 0.33333334
        - serializedVersion: 3
          time: 1.0011501
          value: 1
          inSlope: 1
          outSlope: 1
          tangentMode: 0
          weightedMode: 0
          inWeight: 0.33333334
          outWeight: 0.33333334
        m_PreInfinity: 2
        m_PostInfinity: 2
        m_RotationOrder: 4
      StartDelay: 0
      Duration: 0.2
    Fade:
      AnimationType: 2
      Enabled: 1
      From: 0
      To: 0
      By: 0.5
      UseCustomFromAndTo: 0
      NumberOfLoops: -1
      LoopType: 1
      EaseType: 0
      Ease: 1
      AnimationCurve:
        serializedVersion: 2
        m_Curve: []
        m_PreInfinity: 2
        m_PostInfinity: 2
        m_RotationOrder: 4
      StartDelay: 0.2
      Duration: 0.2
  Category: Flip
  Name: ThrowToTop
